RISC_V/LIFO_Buffer/buffer_test.vcd
$date
	Thu Mar 05 04:50:18 2026
$end
$version
	Icarus Verilog
$end
$timescale
	1ps
$end
$scope module PISO_LIFO_tb $end
$var wire 1 ! serial_out $end
$var wire 1 " busy $end
$var reg 1 # clk $end
$var reg 32 $ data_in [31:0] $end
$var reg 1 % pop_trigger $end
$var reg 1 & push $end
$var reg 1 ' rst_n $end
$scope module uut $end
$var wire 1 # clk $end
$var wire 32 ( data_in [31:0] $end
$var wire 1 % pop_trigger $end
$var wire 1 & push $end
$var wire 1 ' rst_n $end
$var reg 5 ) bit_count [4:0] $end
$var reg 1 " busy $end
$var reg 1 ! serial_out $end
$var reg 32 * shift_reg [31:0] $end
$var reg 2 + stack_ptr [1:0] $end
$upscope $end
$upscope $end
$enddefinitions $end
$comment Show the parameter values. $end
$dumpall
$end
#0
$dumpvars
b0 +
bx *
bx )
b0 (
0'
0&
0%
b0 $
0#
0"
x!
$end
#5000
1#
#10000
0#
1&
b10100101101001011010010110100101 $
b10100101101001011010010110100101 (
1'
#15000
b1 +
1#
#20000
0#
#25000
b10 +
1#
#30000
0#
0&
#35000
1#
#40000
0#
1%
#45000
b11111 )
1"
b1 +
b10100101101001011010010110100101 *
1#
#50000
0#
0%
#55000
b11110 )
1!
1#
#60000
0#
#65000
b11101 )
0!
1#
#70000
0#
#75000
b11100 )
1!
1#
#80000
0#
#85000
b11011 )
0!
1#
#90000
0#
#95000
b11010 )
1#
#100000
0#
#105000
b11001 )
1!
1#
#110000
0#
#115000
b11000 )
0!
1#
#120000
0#
#125000
b10111 )
1!
1#
#130000
0#
#135000
b10110 )
1#
#140000
0#
#145000
b10101 )
0!
1#
#150000
0#
#155000
b10100 )
1!
1#
#160000
0#
#165000
b10011 )
0!
1#
#170000
0#
#175000
b10010 )
1#
#180000
0#
#185000
b10001 )
1!
1#
#190000
0#
#195000
b10000 )
0!
1#
#200000
0#
#205000
b1111 )
1!
1#
#210000
0#
#215000
b1110 )
1#
#220000
0#
#225000
b1101 )
0!
1#
#230000
0#
#235000
b1100 )
1!
1#
#240000
0#
#245000
b1011 )
0!
1#
#250000
0#
#255000
b1010 )
1#
#260000
0#
#265000
b1001 )
1!
1#
#270000
0#
#275000
b1000 )
0!
1#
#280000
0#
#285000
b111 )
1!
1#
#290000
0#
#295000
b110 )
1#
#300000
0#
#305000
b101 )
0!
1#
#310000
0#
#315000
b100 )
1!
1#
#320000
0#
#325000
b11 )
0!
1#
#330000
0#
#335000
b10 )
1#
#340000
0#
#345000
b1 )
1!
1#
#350000
0#
#355000
b0 )
0!
1#
#360000
0#
#365000
0"
1!
1#
