rtl/backprop_neuron/backprop_neuron_tb.vcd
$date
	Fri Jan 09 08:43:09 2026
$end
$version
	Icarus Verilog
$end
$timescale
	1ps
$end
$scope module backprop_neuron_tb $end
$var wire 1 ! weight_update_done $end
$var wire 16 " total_weight_change [15:0] $end
$var wire 1 # spike_out $end
$var wire 5 $ spike_count [4:0] $end
$var wire 16 % membrane_potential_pre_spike [15:0] $end
$var wire 16 & membrane_potential [15:0] $end
$var wire 16 ' error_out [15:0] $end
$var parameter 32 ( ADDR_WIDTH $end
$var parameter 32 ) DATA_WIDTH $end
$var parameter 32 * NUM_INPUTS $end
$var parameter 32 + SPIKE_HISTORY_DEPTH $end
$var parameter 32 , WEIGHT_WIDTH $end
$var reg 1 - backprop_enable $end
$var reg 1 . clk $end
$var reg 1 / enable $end
$var reg 16 0 error_gradient [15:0] $end
$var reg 16 1 leak_rate [15:0] $end
$var reg 16 2 learning_rate [15:0] $end
$var reg 1 3 mode $end
$var reg 1 4 rst_n $end
$var reg 8 5 spike_in [7:0] $end
$var reg 16 6 threshold [15:0] $end
$var reg 4 7 weight_init_addr [3:0] $end
$var reg 16 8 weight_init_data [15:0] $end
$var reg 1 9 weight_init_mode $end
$var reg 1 : weight_init_write $end
$var integer 32 ; forward_cycles [31:0] $end
$var integer 32 < i [31:0] $end
$var integer 32 = spikes_generated [31:0] $end
$var integer 32 > test_num [31:0] $end
$scope module dut $end
$var wire 1 - backprop_enable $end
$var wire 1 . clk $end
$var wire 1 / enable $end
$var wire 16 ? error_gradient [15:0] $end
$var wire 16 @ leak_rate [15:0] $end
$var wire 16 A learning_rate [15:0] $end
$var wire 1 3 mode $end
$var wire 1 4 rst_n $end
$var wire 8 B spike_in [7:0] $end
$var wire 16 C threshold [15:0] $end
$var wire 4 D weight_init_addr [3:0] $end
$var wire 16 E weight_init_data [15:0] $end
$var wire 1 9 weight_init_mode $end
$var wire 1 : weight_init_write $end
$var parameter 32 F ADDR_WIDTH $end
$var parameter 4 G CALC_GRADIENT $end
$var parameter 32 H DATA_WIDTH $end
$var parameter 4 I DONE $end
$var parameter 4 J IDLE $end
$var parameter 32 K NUM_INPUTS $end
$var parameter 4 L PROPAGATE_ERROR $end
$var parameter 32 M SPIKE_HISTORY_DEPTH $end
$var parameter 4 N UPDATE_WEIGHTS $end
$var parameter 32 O WEIGHT_WIDTH $end
$var parameter 16 P ZERO $end
$var reg 4 Q backprop_state [3:0] $end
$var reg 16 R error_out [15:0] $end
$var reg 5 S history_read_ptr [4:0] $end
$var reg 5 T history_write_ptr [4:0] $end
$var reg 16 U membrane_potential [15:0] $end
$var reg 16 V membrane_potential_next [15:0] $end
$var reg 16 W membrane_potential_pre_spike [15:0] $end
$var reg 5 X spike_count [4:0] $end
$var reg 1 # spike_out $end
$var reg 16 Y total_weight_change [15:0] $end
$var reg 1 ! weight_update_done $end
$var reg 4 Z weight_update_index [3:0] $end
$var reg 16 [ weighted_sum [15:0] $end
$var integer 32 \ i [31:0] $end
$upscope $end
$scope task initialize_signals $end
$upscope $end
$scope task test_backward_pass_gradient $end
$upscope $end
$scope task test_complete_cycle $end
$upscope $end
$scope task test_error_propagation $end
$upscope $end
$scope task test_extended_forward_pass $end
$upscope $end
$scope task test_forward_pass_multiple_spikes $end
$upscope $end
$scope task test_forward_pass_no_spike $end
$upscope $end
$scope task test_forward_pass_single_spike $end
$upscope $end
$scope task test_membrane_decay $end
$upscope $end
$scope task test_spike_generation $end
$upscope $end
$scope task test_weight_initialization $end
$upscope $end
$scope task test_weight_updates $end
$upscope $end
$upscope $end
$scope module backprop_neuron_tb $end
$scope module dut $end
$var reg 16 ] \weights[0] [15:0] $end
$upscope $end
$upscope $end
$scope module backprop_neuron_tb $end
$scope module dut $end
$var reg 16 ^ \weights[1] [15:0] $end
$upscope $end
$upscope $end
$scope module backprop_neuron_tb $end
$scope module dut $end
$var reg 16 _ \weights[2] [15:0] $end
$upscope $end
$upscope $end
$scope module backprop_neuron_tb $end
$scope module dut $end
$var reg 16 ` \weights[3] [15:0] $end
$upscope $end
$upscope $end
$scope module backprop_neuron_tb $end
$scope module dut $end
$var reg 16 a \weights[4] [15:0] $end
$upscope $end
$upscope $end
$scope module backprop_neuron_tb $end
$scope module dut $end
$var reg 16 b \weights[5] [15:0] $end
$upscope $end
$upscope $end
$scope module backprop_neuron_tb $end
$scope module dut $end
$var reg 16 c \weights[6] [15:0] $end
$upscope $end
$upscope $end
$scope module backprop_neuron_tb $end
$scope module dut $end
$var reg 16 d \weights[7] [15:0] $end
$upscope $end
$upscope $end
$scope module backprop_neuron_tb $end
$scope module dut $end
$var reg 1 e \spike_history[0] $end
$upscope $end
$upscope $end
$scope module backprop_neuron_tb $end
$scope module dut $end
$var reg 8 f \input_spike_history[0] [7:0] $end
$upscope $end
$upscope $end
$scope module backprop_neuron_tb $end
$scope module dut $end
$var reg 16 g \membrane_history[0] [15:0] $end
$upscope $end
$upscope $end
$scope module backprop_neuron_tb $end
$scope module dut $end
$var reg 1 h \spike_history[1] $end
$upscope $end
$upscope $end
$scope module backprop_neuron_tb $end
$scope module dut $end
$var reg 8 i \input_spike_history[1] [7:0] $end
$upscope $end
$upscope $end
$scope module backprop_neuron_tb $end
$scope module dut $end
$var reg 16 j \membrane_history[1] [15:0] $end
$upscope $end
$upscope $end
$scope module backprop_neuron_tb $end
$scope module dut $end
$var reg 1 k \spike_history[2] $end
$upscope $end
$upscope $end
$scope module backprop_neuron_tb $end
$scope module dut $end
$var reg 8 l \input_spike_history[2] [7:0] $end
$upscope $end
$upscope $end
$scope module backprop_neuron_tb $end
$scope module dut $end
$var reg 16 m \membrane_history[2] [15:0] $end
$upscope $end
$upscope $end
$scope module backprop_neuron_tb $end
$scope module dut $end
$var reg 1 n \spike_history[3] $end
$upscope $end
$upscope $end
$scope module backprop_neuron_tb $end
$scope module dut $end
$var reg 8 o \input_spike_history[3] [7:0] $end
$upscope $end
$upscope $end
$scope module backprop_neuron_tb $end
$scope module dut $end
$var reg 16 p \membrane_history[3] [15:0] $end
$upscope $end
$upscope $end
$scope module backprop_neuron_tb $end
$scope module dut $end
$var reg 1 q \spike_history[4] $end
$upscope $end
$upscope $end
$scope module backprop_neuron_tb $end
$scope module dut $end
$var reg 8 r \input_spike_history[4] [7:0] $end
$upscope $end
$upscope $end
$scope module backprop_neuron_tb $end
$scope module dut $end
$var reg 16 s \membrane_history[4] [15:0] $end
$upscope $end
$upscope $end
$scope module backprop_neuron_tb $end
$scope module dut $end
$var reg 1 t \spike_history[5] $end
$upscope $end
$upscope $end
$scope module backprop_neuron_tb $end
$scope module dut $end
$var reg 8 u \input_spike_history[5] [7:0] $end
$upscope $end
$upscope $end
$scope module backprop_neuron_tb $end
$scope module dut $end
$var reg 16 v \membrane_history[5] [15:0] $end
$upscope $end
$upscope $end
$scope module backprop_neuron_tb $end
$scope module dut $end
$var reg 1 w \spike_history[6] $end
$upscope $end
$upscope $end
$scope module backprop_neuron_tb $end
$scope module dut $end
$var reg 8 x \input_spike_history[6] [7:0] $end
$upscope $end
$upscope $end
$scope module backprop_neuron_tb $end
$scope module dut $end
$var reg 16 y \membrane_history[6] [15:0] $end
$upscope $end
$upscope $end
$scope module backprop_neuron_tb $end
$scope module dut $end
$var reg 1 z \spike_history[7] $end
$upscope $end
$upscope $end
$scope module backprop_neuron_tb $end
$scope module dut $end
$var reg 8 { \input_spike_history[7] [7:0] $end
$upscope $end
$upscope $end
$scope module backprop_neuron_tb $end
$scope module dut $end
$var reg 16 | \membrane_history[7] [15:0] $end
$upscope $end
$upscope $end
$enddefinitions $end
$comment Show the parameter values. $end
$dumpall
b0 P
b10000 O
b10 N
b100000 M
b11 L
b1000 K
b0 J
b100 I
b10000 H
b1 G
b101 F
b10000 ,
b100000 +
b1000 *
b10000 )
b101 (
$end
#0
$dumpvars
bx |
bx {
xz
bx y
bx x
xw
bx v
bx u
xt
bx s
bx r
xq
bx p
bx o
xn
bx m
bx l
xk
bx j
bx i
xh
bx g
bx f
xe
bx d
bx c
bx b
bx a
bx `
bx _
bx ^
bx ]
b1000 \
b0 [
bx Z
bx Y
bx X
bx W
bx V
bx U
bx T
bx S
bx R
bx Q
b0 E
b0 D
b1111101000 C
b0 B
b100000000 A
b1010 @
b0 ?
b0 >
b0 =
b1000 <
b0 ;
0:
09
b0 8
b0 7
b1111101000 6
b0 5
x4
03
b100000000 2
b1010 1
b0 0
0/
0.
0-
bx '
bx &
bx %
bx $
x#
bx "
x!
$end
#5000
b1111111111110110 V
b0 d
b0 c
b0 b
b0 a
b0 `
b0 _
b0 ^
b0 ]
b0 T
b0 $
b0 X
0#
b0 %
b0 W
b0 &
b0 U
b0 S
b0 "
b0 Y
b0 '
b0 R
0!
b0 Z
b0 Q
b1000 \
04
1.
#10000
0.
#15000
b0 d
b0 c
b0 b
b0 a
b0 `
b0 _
b0 ^
b0 ]
b1000 \
1.
#20000
0.
#25000
b0 d
b0 c
b0 b
b0 a
b0 `
b0 _
b0 ^
b0 ]
b1000 \
1.
#30000
0.
#35000
b0 d
b0 c
b0 b
b0 a
b0 `
b0 _
b0 ^
b0 ]
b1000 \
1.
#40000
0.
#45000
b0 d
b0 c
b0 b
b0 a
b0 `
b0 _
b0 ^
b0 ]
b1000 \
1.
#50000
0.
#55000
14
1.
#60000
0.
#65000
b0 <
19
b1 >
1.
#70000
0.
#75000
b1000 \
b1100100 ]
b1 <
1:
b1100100 8
b1100100 E
1.
#80000
0.
#85000
b1000 \
b10010110 ^
b10 <
b10010110 8
b10010110 E
b1 7
b1 D
1.
#90000
0.
#95000
b1000 \
b11001000 _
b11 <
b11001000 8
b11001000 E
b10 7
b10 D
1.
#100000
0.
#105000
b1000 \
b11111010 `
b100 <
b11111010 8
b11111010 E
b11 7
b11 D
1.
#110000
0.
#115000
b1000 \
b100101100 a
b101 <
b100101100 8
b100101100 E
b100 7
b100 D
1.
#120000
0.
#125000
b1000 \
b101011110 b
b110 <
b101011110 8
b101011110 E
b101 7
b101 D
1.
#130000
0.
#135000
b1000 \
b110010000 c
b111 <
b110010000 8
b110010000 E
b110 7
b110 D
1.
#140000
0.
#145000
b1000 \
b111000010 d
b1000 <
b111000010 8
b111000010 E
b111 7
b111 D
1.
#150000
0.
#155000
b1111111111101100 V
b1 T
b0 g
b0 f
0e
b1111111111110110 &
b1111111111110110 U
b1111111111110110 %
b1111111111110110 W
1/
b10 >
09
0:
1.
#160000
0.
#165000
b1111111111100010 V
b10 T
b1111111111110110 j
b0 i
0h
b1111111111101100 &
b1111111111101100 U
b1111111111101100 %
b1111111111101100 W
1.
#170000
0.
#175000
b1111111111011000 V
b11 T
b1111111111101100 m
b0 l
0k
b1111111111100010 &
b1111111111100010 U
b1111111111100010 %
b1111111111100010 W
1.
#180000
0.
#185000
b1111111111001110 V
b100 T
b1111111111100010 p
b0 o
0n
b1111111111011000 &
b1111111111011000 U
b1111111111011000 %
b1111111111011000 W
1.
#190000
0.
#195000
b1111111111000100 V
b101 T
b1111111111011000 s
b0 r
0q
b1111111111001110 &
b1111111111001110 U
b1111111111001110 %
b1111111111001110 W
1.
#200000
0.
#205000
b1111111110111010 V
b110 T
b1111111111001110 v
b0 u
0t
b1111111111000100 &
b1111111111000100 U
b1111111111000100 %
b1111111111000100 W
b11 >
1/
1.
#210000
0.
#215000
b111 T
b1111111111000100 y
b1 x
0w
b1111111110111010 &
b1111111110111010 U
b1111111110111010 %
b1111111110111010 W
b10100 V
b1100100 [
b1000 \
b1 5
b1 B
1.
#220000
0.
#225000
b1000 T
b1111111110111010 |
b0 {
0z
b10100 &
b10100 U
b10100 %
b10100 W
b1010 V
b1000 \
b0 [
b0 5
b0 B
1.
#230000
0.
#235000
b0 V
b1001 T
b1010 &
b1010 U
b1010 %
b1010 W
1.
#240000
0.
#245000
b1111111111110110 V
b1010 T
b0 &
b0 U
b0 %
b0 W
1.
#250000
0.
#255000
b1111111111101100 V
b1011 T
b1111111111110110 &
b1111111111110110 U
b1111111111110110 %
b1111111111110110 W
b100 >
1/
1.
#260000
0.
#265000
b1100 T
b1111111111101100 &
b1111111111101100 U
b1111111111101100 %
b1111111111101100 W
b1010011110 V
b1010111100 [
b1000 \
b1111 5
b1111 B
1.
#270000
0.
#275000
b1101 T
b1 $
b1 X
b0 &
b0 U
1#
b1010011110 %
b1010011110 W
b1111111111110110 V
b1000 \
b0 [
b111110100 6
b111110100 C
b101 >
1/
b0 5
b0 B
1.
#280000
0.
#285000
b1110 T
b1111111111110110 &
b1111111111110110 U
0#
b1111111111110110 %
b1111111111110110 W
b0 V
b100010011000 [
b1000 \
b11111111 5
b11111111 B
1.
#290000
0.
#295000
b1111 T
b0 &
b0 U
b0 %
b0 W
b1111111111110110 V
b1000 \
b0 [
b0 5
b0 B
1.
#300000
0.
#305000
b1111111111101100 V
b10000 T
b1111111111110110 &
b1111111111110110 U
b1111111111110110 %
b1111111111110110 W
1.
#310000
0.
#315000
b1111111111100010 V
b10001 T
b1111111111101100 &
b1111111111101100 U
b1111111111101100 %
b1111111111101100 W
1.
#320000
0.
#325000
b10010 T
b1111111111100010 &
b1111111111100010 U
b1111111111100010 %
b1111111111100010 W
b1111111110110000 V
b110010 1
b110010 @
b110 >
1/
b1111101000 6
b1111101000 C
1.
#330000
0.
#335000
b10011 T
b1111111110110000 &
b1111111110110000 U
b1111111110110000 %
b1111111110110000 W
b1000111010 V
b1010111100 [
b1000 \
b1111 5
b1111 B
1.
#340000
0.
#345000
b10100 T
b1000111010 &
b1000111010 U
b1000111010 %
b1000111010 W
b1000001000 V
b1000 \
b0 [
b0 <
b0 5
b0 B
1.
#350000
0.
#355000
b111010110 V
b10101 T
b1000001000 &
b1000001000 U
b1000001000 %
b1000001000 W
b1 <
1.
#360000
0.
#365000
b110100100 V
b10110 T
b111010110 &
b111010110 U
b111010110 %
b111010110 W
b10 <
1.
#370000
0.
#375000
b101110010 V
b10111 T
b110100100 &
b110100100 U
b110100100 %
b110100100 W
b11 <
1.
#380000
0.
#385000
b101000000 V
b11000 T
b101110010 &
b101110010 U
b101110010 %
b101110010 W
b100 <
1.
#390000
0.
#395000
b11001 T
b101000000 &
b101000000 U
b101000000 %
b101000000 W
b100110110 V
b1001011000 6
b1001011000 C
b111 >
1/
b1010 1
b1010 @
b0 <
1.
#400000
0.
#405000
b11010 T
b100110110 &
b100110110 U
b100110110 %
b100110110 W
b0 V
b1000100110 [
b1000 \
b1 <
b100100 5
b100100 B
1.
#410000
0.
#415000
b11011 T
b0 &
b0 U
b0 %
b0 W
b1000011100 V
b1000 \
b1000100110 [
b10 <
b10000001 5
b10000001 B
1.
#420000
0.
#425000
b11100 T
b1000011100 &
b1000011100 U
b1000011100 %
b1000011100 W
b0 V
b1000 \
b101011110 [
b11 <
b1001 5
b1001 B
1.
#430000
0.
#435000
b11101 T
b0 &
b0 U
b0 %
b0 W
b0 V
b1000 \
b1111101000 [
b100 <
b1100011 5
b1100011 B
1.
#440000
0.
#445000
b11110 T
b1000011100 V
b1000 \
b1000100110 [
b101 <
b1101 5
b1101 B
1.
#450000
0.
#455000
b11111 T
b1000011100 &
b1000011100 U
b1000011100 %
b1000011100 W
b0 V
b1000 \
b1111101000 [
b110 <
b10001101 5
b10001101 B
1.
#460000
0.
#465000
b0 T
b0 &
b0 U
b0 %
b0 W
b0 V
b1000 \
b10000011010 [
b111 <
b1100101 5
b1100101 B
1.
#470000
0.
#475000
b1 T
b0 g
b10010 f
0e
b110111000 V
b1000 \
b111000010 [
b1000 <
b10010 5
b10010 B
1.
#480000
0.
#485000
b10 T
b0 j
b1 i
0h
b110111000 &
b110111000 U
b110111000 %
b110111000 W
b1000010010 V
b1000 \
b1100100 [
b1001 <
b1 5
b1 B
1.
#490000
0.
#495000
b11 T
b110111000 m
b1101 l
0k
b1000010010 &
b1000010010 U
b1000010010 %
b1000010010 W
b0 V
b1000 \
b1000100110 [
b1010 <
b1101 5
b1101 B
1.
#500000
0.
#505000
b100 T
b1000010010 p
b1110110 o
0n
b0 &
b0 U
b0 %
b0 W
b0 V
b1000 \
b10101111000 [
b1011 <
b1110110 5
b1110110 B
1.
#510000
0.
#515000
b101 T
b0 s
b111101 r
0q
b0 V
b1000 \
b10010110000 [
b1100 <
b111101 5
b111101 B
1.
#520000
0.
#525000
b110 T
b0 v
b11101101 u
0t
b0 V
b1000 \
b11011010110 [
b1101 <
b11101101 5
b11101101 B
1.
#530000
0.
#535000
b111 T
b0 y
b10001100 x
0w
b0 V
b1000 \
b1110000100 [
b1110 <
b10001100 5
b10001100 B
1.
#540000
0.
#545000
b1000 T
b0 |
b11111001 {
0z
b0 V
b1000 \
b11100111010 [
b1111 <
b11111001 5
b11111001 B
1.
#550000
0.
#555000
b1001 T
b0 V
b1000 \
b10010110000 [
b10000 <
b11000110 5
b11000110 B
1.
#560000
0.
#565000
b1010 T
b0 V
b1000 \
b10001111110 [
b10001 <
b11000101 5
b11000101 B
1.
#570000
0.
#575000
b1011 T
b0 V
b1000 \
b10010110000 [
b10010 <
b10101010 5
b10101010 B
1.
#580000
0.
#585000
b1100 T
b0 V
b1000 \
b10111011100 [
b10011 <
b11100101 5
b11100101 B
1.
#590000
0.
#595000
b1101 T
b0 V
b1000 \
b10111011100 [
b10100 <
b1110111 5
b1110111 B
1.
#600000
0.
#605000
b1 Q
b1100 S
b1111111111110110 V
b1000 \
b0 [
b1100100 0
b1100100 ?
1-
13
b1000 >
0/
b0 5
b0 B
1.
#610000
0.
#615000
b10 Q
b1000 \
1.
#620000
0.
#625000
b1 Z
b1100100 ]
1.
#630000
0.
#635000
b10 Z
b10010110 ^
1.
#640000
0.
#645000
b11 Z
b11001000 _
1.
#650000
0.
#655000
b100 Z
b11111010 `
1.
#660000
0.
#665000
b101 Z
b100101100 a
1.
#670000
0.
#675000
b110 Z
b101011110 b
1.
#680000
0.
#685000
b111 Z
b110010000 c
1.
#690000
0.
#695000
b1000 Z
b111000010 d
1.
#700000
0.
#705000
b11 Q
1.
#710000
0.
#715000
b100 Q
b1111111110101111 '
b1111111110101111 R
b1000 \
1.
#720000
0.
#725000
b0 Q
1!
b1000 <
b1001 >
1.
#730000
0.
#735000
b1 Q
b0 Z
0!
b11001000 0
b11001000 ?
b1010 >
1-
b1000 <
1.
#740000
0.
#745000
b10 Q
b1000 \
1.
#750000
0.
#755000
b1 Z
b1100100 ]
1.
#760000
0.
#765000
b10 Z
b10010110 ^
1.
#770000
0.
#775000
b11 Z
b11001000 _
1.
#780000
0.
#785000
b100 Z
b11111010 `
1.
#790000
0.
#795000
b101 Z
b100101100 a
1.
#800000
0.
#805000
b110 Z
b101011110 b
1.
#810000
0.
#815000
b111 Z
b110010000 c
1.
#820000
0.
#825000
b1000 Z
b111000010 d
1.
#830000
0.
#835000
b11 Q
1.
#840000
0.
#845000
b100 Q
b1110 '
b1110 R
b1000 \
1.
#850000
0.
#855000
b0 Q
1!
1.
#860000
0.
#865000
b1 Q
b0 Z
0!
1.
#870000
0.
#875000
b10 Q
b1000 \
1.
#880000
0.
#885000
b1 Z
b1100100 ]
1.
#890000
0.
#895000
b10 Z
b10010110 ^
1.
#900000
0.
#905000
b11 Z
b11001000 _
1.
#910000
0.
#915000
b100 Z
b11111010 `
1.
#920000
0.
#925000
b101 Z
b100101100 a
1.
#930000
0.
#935000
b110 Z
b101011110 b
1.
#940000
0.
#945000
b1111111111101100 V
b1110 T
b1111111111110110 &
b1111111111110110 U
b1111111111110110 %
b1111111111110110 W
b0 Q
b0 <
b1100100000 6
b1100100000 C
1/
03
b1011 >
0-
1.
#950000
0.
#955000
b1111 T
b1111111111101100 &
b1111111111101100 U
b1111111111101100 %
b1111111111101100 W
b1010011110 V
b1010111100 [
b1000 \
b1 <
b1111 5
b1111 B
1.
#960000
0.
#965000
b10000 T
b1010011110 &
b1010011110 U
b1010011110 %
b1010011110 W
b1011111000 V
b1000 \
b1100100 [
b10 <
b1 5
b1 B
1.
#970000
0.
#975000
b0 V
b10001 T
b1011111000 &
b1011111000 U
b1011111000 %
b1011111000 W
b11 <
1.
#980000
0.
#985000
b10010 T
b0 &
b0 U
b0 %
b0 W
b1010110010 V
b1000 \
b1010111100 [
b100 <
b1111 5
b1111 B
1.
#990000
0.
#995000
b10011 T
b1010110010 &
b1010110010 U
b1010110010 %
b1010110010 W
b1100001100 V
b1000 \
b1100100 [
b101 <
b1 5
b1 B
1.
#1000000
0.
#1005000
b0 V
b10100 T
b1100001100 &
b1100001100 U
b1100001100 %
b1100001100 W
b110 <
1.
#1010000
0.
#1015000
b10101 T
b0 &
b0 U
b0 %
b0 W
b1010110010 V
b1000 \
b1010111100 [
b111 <
b1111 5
b1111 B
1.
#1020000
0.
#1025000
b10110 T
b1010110010 &
b1010110010 U
b1010110010 %
b1010110010 W
b1100001100 V
b1000 \
b1100100 [
b1000 <
b1 5
b1 B
1.
#1030000
0.
#1035000
b0 V
b10111 T
b1100001100 &
b1100001100 U
b1100001100 %
b1100001100 W
b1001 <
1.
#1040000
0.
#1045000
b11000 T
b0 &
b0 U
b0 %
b0 W
b1010110010 V
b1000 \
b1010111100 [
b1010 <
b1111 5
b1111 B
1.
#1050000
0.
#1055000
b1 Q
b10111 S
b0 Z
b1111111111110110 V
b1000 \
b0 [
b10000000 2
b10000000 A
b1111111111001110 0
b1111111111001110 ?
1-
13
0/
b0 5
b0 B
1.
#1060000
0.
#1065000
b10 Q
b1000 \
1.
#1070000
0.
#1075000
b1000 \
b1 Z
b11 "
b11 Y
b1100111 ]
1.
#1080000
0.
#1085000
b1000 \
b10 Z
b110 "
b110 Y
b10011001 ^
1.
#1090000
0.
#1095000
b1000 \
b11 Z
b1001 "
b1001 Y
b11001011 _
1.
#1100000
0.
#1105000
b1000 \
b100 Z
b1100 "
b1100 Y
b11111101 `
1.
#1110000
0.
#1115000
b101 Z
b100101100 a
1.
#1120000
0.
#1125000
b110 Z
b101011110 b
1.
#1130000
0.
#1135000
b111 Z
b110010000 c
1.
#1140000
0.
#1145000
b1000 Z
b111000010 d
1.
#1150000
0.
#1155000
b11 Q
1.
#1160000
0.
#1165000
b100 Q
b1111111110110110 '
b1111111110110110 R
b1000 \
1.
#1170000
0.
#1175000
b0 Q
1!
1.
#1180000
0.
#1185000
0!
0-
1.
