rtl/neuron_integer/neuron_int_all/decay/decay_tb.vcd
$date
	Thu Apr 24 17:50:20 2025
$end
$version
	Icarus Verilog
$end
$timescale
	100ps
$end
$scope module potential_decay_tb $end
$var wire 32 ! output_potential_decay [31:0] $end
$var reg 1 " clk $end
$var reg 1 # load $end
$var reg 3 $ mode [2:0] $end
$var reg 32 % new_potential [31:0] $end
$var reg 1 & rst $end
$var reg 1 ' time_step $end
$scope module dut $end
$var wire 1 " clk $end
$var wire 1 # load $end
$var wire 3 ( mode [2:0] $end
$var wire 32 ) new_potential [31:0] $end
$var wire 1 & rst $end
$var wire 1 ' time_step $end
$var wire 32 * v_squared_res [31:0] $end
$var wire 1 + v_squared_done $end
$var wire 64 , v_squared [63:0] $end
$var wire 32 - temp_izi_first [31:0] $end
$var wire 64 . izi_second_term [63:0] $end
$var wire 32 / izi_first_term [31:0] $end
$var wire 1 0 izi2_done $end
$var reg 32 1 membrane_potential [31:0] $end
$var reg 32 2 output_potential_decay [31:0] $end
$var reg 1 3 prev_load $end
$var reg 1 4 prev_time_step $end
$var reg 1 5 start $end
$scope module izi2 $end
$var wire 32 6 A [31:0] $end
$var wire 32 7 B [31:0] $end
$var wire 1 " clk $end
$var wire 1 & rst $end
$var wire 1 5 start $end
$var reg 6 8 count [5:0] $end
$var reg 1 0 done $end
$var reg 32 9 multiplicand [31:0] $end
$var reg 32 : multiplier [31:0] $end
$var reg 1 ; prev_start $end
$var reg 64 < product [63:0] $end
$var reg 64 = result [63:0] $end
$var reg 1 > running $end
$upscope $end
$scope module v_squared_mul $end
$var wire 32 ? A [31:0] $end
$var wire 32 @ B [31:0] $end
$var wire 1 " clk $end
$var wire 1 & rst $end
$var wire 1 5 start $end
$var reg 6 A count [5:0] $end
$var reg 1 + done $end
$var reg 32 B multiplicand [31:0] $end
$var reg 32 C multiplier [31:0] $end
$var reg 1 D prev_start $end
$var reg 64 E product [63:0] $end
$var reg 64 F result [63:0] $end
$var reg 1 G running $end
$upscope $end
$upscope $end
$upscope $end
$enddefinitions $end
$comment Show the parameter values. $end
$dumpall
$end
#0
$dumpvars
xG
bx F
bx E
xD
bx C
bx B
bx A
bx @
bx ?
x>
bx =
bx <
x;
bx :
bx 9
bx 8
b101 7
bx 6
x5
x4
x3
bx 2
bx 1
x0
bx /
bx .
bx -
bx ,
x+
bx *
b0 )
b111 (
0'
1&
b0 %
b111 $
0#
0"
bx !
$end
#50
b0 /
b0 -
b0 *
b0 ,
b0 F
0+
0G
b0 A
b0 E
b0 C
b0 B
b0 .
b0 =
00
0>
b0 8
b0 <
b0 :
b0 9
05
03
b0 !
b0 2
04
b0 1
b0 6
b0 ?
b0 @
1"
#100
0"
0&
#150
0;
0D
1"
#200
0"
1#
b1111101000 %
b1111101000 )
#250
13
b1111101000 1
b1111101000 6
b1111101000 ?
b1111101000 @
1"
#300
0"
0#
#350
03
1"
#400
0"
#450
1"
#500
0"
b101 $
b101 (
#550
1"
#600
0"
#650
1"
#700
0"
#750
1"
#800
0"
#850
1"
#900
0"
#950
1"
#1000
0"
1'
#1050
b1111101000 !
b1111101000 2
14
1"
#1100
0"
0'
#1150
04
1"
#1200
0"
1#
#1250
15
13
1"
#1300
0"
0#
#1350
05
03
1>
b101 :
b1111101000 9
1;
1G
b1111101000 C
b1111101000 B
1D
1"
#1400
0"
#1450
0D
b1 A
b111110100 C
0;
b1 8
b10 :
b1111101000 <
1"
#1500
0"
#1550
b10 8
b1 :
b10 A
b11111010 C
1"
#1600
0"
#1650
b11 A
b1111101 C
b11 8
b0 :
b1001110001000 <
1"
#1700
0"
#1750
b100 8
b100 A
b111110 C
b1111101000000 E
1"
#1800
0"
#1850
b101 A
b11111 C
b101 8
1"
#1900
0"
#1950
b110 8
b110 A
b1111 C
b1001110001000000 E
1"
#2000
0"
#2050
b111 A
b111 C
b11001011001000000 E
b111 8
1"
#2100
0"
#2150
b1000 8
b1000 A
b11 C
b111000101001000000 E
1"
#2200
0"
#2250
b1001 A
b1 C
b1110111001001000000 E
b1001 8
1"
#2300
0"
#2350
b1010 8
b1010 A
b0 C
b11110100001001000000 E
1"
#2400
0"
#2450
b1011 A
b1011 8
1"
#2500
0"
#2550
b1100 8
b1100 A
1"
#2600
0"
#2650
b1101 A
b1101 8
1"
#2700
0"
#2750
b1110 8
b1110 A
1"
#2800
0"
#2850
b1111 A
b1111 8
1"
#2900
0"
#2950
b10000 8
b10000 A
1"
#3000
0"
#3050
b10001 A
b10001 8
1"
#3100
0"
#3150
b10010 8
b10010 A
1"
#3200
0"
#3250
b10011 A
b10011 8
1"
#3300
0"
#3350
b10100 8
b10100 A
1"
#3400
0"
#3450
b10101 A
b10101 8
1"
#3500
0"
#3550
b10110 8
b10110 A
1"
#3600
0"
#3650
b10111 A
b10111 8
1"
#3700
0"
#3750
b11000 8
b11000 A
1"
#3800
0"
#3850
b11001 A
b11001 8
1"
#3900
0"
#3950
b11010 8
b11010 A
1"
#4000
0"
#4050
b11011 A
b11011 8
1"
#4100
0"
#4150
b11100 8
b11100 A
1"
#4200
0"
#4250
b11101 A
b11101 8
1"
#4300
0"
#4350
b11110 8
b11110 A
1"
#4400
0"
#4450
b11111 A
b11111 8
1"
#4500
0"
#4550
b100000 8
b100000 A
1"
#4600
0"
#4650
b1001100010010110 /
b10011000100101101000000 -
b11110100001001000000 *
0G
1+
b11110100001001000000 ,
b11110100001001000000 F
0>
10
b1001110001000 .
b1001110001000 =
1"
#4700
0"
#4750
b1000010110011010 1
b1000010110011010 6
b1000010110011010 ?
b1000010110011010 @
1"
#4800
0"
#4850
1"
#4900
0"
#4950
1"
#5000
0"
#5050
1"
#5100
0"
#5150
1"
#5200
0"
#5250
1"
#5300
0"
1'
#5350
b1000010110011010 !
b1000010110011010 2
14
1"
#5400
b1000010110011010 %
b1000010110011010 )
0"
0'
#5450
04
1"
#5500
0"
1#
#5550
15
13
1"
#5600
0"
0#
#5650
b0 /
b0 -
b0 *
1D
b0 ,
b0 F
0+
1G
b0 A
b0 E
b1000010110011010 C
b1000010110011010 B
1;
b0 .
b0 =
00
1>
b0 8
b0 <
b101 :
b1000010110011010 9
05
03
1"
#5700
0"
#5750
b1 8
b10 :
b1000010110011010 <
0;
b1 A
b100001011001101 C
0D
1"
#5800
0"
#5850
b10 A
b10000101100110 C
b10000101100110100 E
b10 8
b1 :
1"
#5900
0"
#5950
b11 8
b0 :
b101001110000000010 <
b11 A
b1000010110011 C
1"
#6000
0"
#6050
b100 A
b100001011001 C
b1010011100000000100 E
b100 8
1"
#6100
0"
#6150
b101 8
b101 A
b10000101100 C
b11011001000110100100 E
1"
#6200
0"
#6250
b110 A
b1000010110 C
b110 8
1"
#6300
0"
#6350
b111 8
b111 A
b100001011 C
1"
#6400
0"
#6450
b1000 A
b10000101 C
b10100000101111010100100 E
b1000 8
1"
#6500
0"
#6550
b1001 8
b1001 A
b1000010 C
b110101011111100010100100 E
1"
#6600
0"
#6650
b1010 A
b100001 C
b1010 8
1"
#6700
0"
#6750
b1011 8
b1011 A
b10000 C
b10111011000110000010100100 E
1"
#6800
0"
#6850
b1100 A
b1000 C
b1100 8
1"
#6900
0"
#6950
b1101 8
b1101 A
b100 C
1"
#7000
0"
#7050
b1110 A
b10 C
b1110 8
1"
#7100
0"
#7150
b1111 8
b1111 A
b1 C
1"
#7200
0"
#7250
b10000 A
b0 C
b1000101101110010110000010100100 E
b10000 8
1"
#7300
0"
#7350
b10001 8
b10001 A
1"
#7400
0"
#7450
b10010 A
b10010 8
1"
#7500
0"
#7550
b10011 8
b10011 A
1"
#7600
0"
#7650
b10100 A
b10100 8
1"
#7700
0"
#7750
b10101 8
b10101 A
1"
#7800
0"
#7850
b10110 A
b10110 8
1"
#7900
0"
#7950
b10111 8
b10111 A
1"
#8000
0"
#8050
b11000 A
b11000 8
1"
#8100
0"
#8150
b11001 8
b11001 A
1"
#8200
0"
#8250
b11010 A
b11010 8
1"
#8300
0"
#8350
b11011 8
b11011 A
1"
#8400
0"
#8450
b11100 A
b11100 8
1"
#8500
0"
#8550
b11101 8
b11101 A
1"
#8600
0"
#8650
b11110 A
b11110 8
1"
#8700
0"
#8750
b11111 8
b11111 A
1"
#8800
0"
#8850
b100000 A
b100000 8
1"
#8900
0"
#8950
b101110010011110111000110 /
b1011100100111101110001100110100 -
b1000101101110010110000010100100 *
0>
10
b101001110000000010 .
b101001110000000010 =
0G
1+
b1000101101110010110000010100100 ,
b1000101101110010110000010100100 F
1"
#9000
0"
#9050
b101101101010001001010000 1
b101101101010001001010000 6
b101101101010001001010000 ?
b101101101010001001010000 @
1"
#9100
0"
#9150
1"
#9200
0"
#9250
1"
#9300
0"
#9350
1"
#9400
0"
#9450
1"
#9500
0"
#9550
1"
#9600
0"
1'
#9650
b101101101010001001010000 !
b101101101010001001010000 2
14
1"
#9700
b101101101010001001010000 %
b101101101010001001010000 )
0"
0'
#9750
04
1"
#9800
0"
1#
#9850
15
13
1"
#9900
0"
0#
#9950
b0 /
b0 -
b0 *
05
03
b0 .
b0 =
00
1>
b0 8
b0 <
b101 :
b101101101010001001010000 9
1;
b0 ,
b0 F
0+
1G
b0 A
b0 E
b101101101010001001010000 C
b101101101010001001010000 B
1D
1"
#10000
0"
#10050
0D
b1 A
b10110110101000100101000 C
0;
b1 8
b10 :
b101101101010001001010000 <
1"
#10100
0"
#10150
b10 8
b1 :
b10 A
b1011011010100010010100 C
1"
#10200
0"
#10250
b11 A
b101101101010001001010 C
b11 8
b0 :
b11100100010010101110010000 <
1"
#10300
0"
#10350
b100 8
b100 A
b10110110101000100101 C
1"
#10400
0"
#10450
b101 A
b1011011010100010010 C
b1011011010100010010100000000 E
b101 8
1"
#10500
0"
#10550
b110 8
b110 A
b101101101010001001 C
1"
#10600
0"
#10650
b111 A
b10110110101000100 C
b111001000100101011100100000000 E
b111 8
1"
#10700
0"
#10750
b1000 8
b1000 A
b1011011010100010 C
1"
#10800
0"
#10850
b1001 A
b101101101010001 C
b1001 8
1"
#10900
0"
#10950
b1010 8
b1010 A
b10110110101000 C
b110100110010101110101100100000000 E
1"
#11000
0"
#11050
b1011 A
b1011011010100 C
b1011 8
1"
#11100
0"
#11150
b1100 8
b1100 A
b101101101010 C
1"
#11200
0"
#11250
b1101 A
b10110110101 C
b1101 8
1"
#11300
0"
#11350
b1110 8
b1110 A
b1011011010 C
b1100001111010101000010101100100000000 E
1"
#11400
0"
#11450
b1111 A
b101101101 C
b1111 8
1"
#11500
0"
#11550
b10000 8
b10000 A
b10110110 C
b111001111001011110010010101100100000000 E
1"
#11600
0"
#11650
b10001 A
b1011011 C
b10001 8
1"
#11700
0"
#11750
b10010 8
b10010 A
b101101 C
b11110000100010000011010010101100100000000 E
1"
#11800
0"
#11850
b10011 A
b10110 C
b1001011101110011001101010010101100100000000 E
b10011 8
1"
#11900
0"
#11950
b10100 8
b10100 A
b1011 C
1"
#12000
0"
#12050
b10101 A
b101 C
b100000010010110111110101010010101100100000000 E
b10101 8
1"
#12100
0"
#12150
b10110 8
b10110 A
b10 C
b1001101111101000001000101010010101100100000000 E
1"
#12200
0"
#12250
b10111 A
b1 C
b10111 8
1"
#12300
0"
#12350
b11000 8
b11000 A
b0 C
b100000100100101100110000101010010101100100000000 E
1"
#12400
0"
#12450
b11001 A
b11001 8
1"
#12500
0"
#12550
b11010 8
b11010 A
1"
#12600
0"
#12650
b11011 A
b11011 8
1"
#12700
0"
#12750
b11100 8
b11100 A
1"
#12800
0"
#12850
b11101 A
b11101 8
1"
#12900
0"
#12950
b11110 8
b11110 A
1"
#13000
0"
#13050
b11111 A
b11111 8
1"
#13100
0"
#13150
b100000 8
b100000 A
1"
#13200
0"
#13250
b11111111111001101001110101111010 /
b11110011010011101011110100000000 -
b110000101010010101100100000000 *
0G
1+
b100000100100101100110000101010010101100100000000 ,
b100000100100101100110000101010010101100100000000 F
0>
10
b11100100010010101110010000 .
b11100100010010101110010000 =
1"
#13300
0"
#13350
b11111100010101010111001001110110 1
b11111100010101010111001001110110 6
b11111100010101010111001001110110 ?
b11111100010101010111001001110110 @
1"
#13400
0"
#13450
1"
#13500
0"
#13550
1"
#13600
0"
#13650
1"
#13700
0"
#13750
1"
#13800
0"
#13850
1"
#13900
0"
1'
#13950
b11111100010101010111001001110110 !
b11111100010101010111001001110110 2
14
1"
#14000
b11111100010101010111001001110110 %
b11111100010101010111001001110110 )
0"
0'
#14050
04
1"
#14100
0"
1#
#14150
15
13
1"
#14200
0"
0#
#14250
b0 /
b0 -
b0 *
1D
b0 ,
b0 F
0+
1G
b0 A
b0 E
b11111100010101010111001001110110 C
b11111100010101010111001001110110 B
1;
b0 .
b0 =
00
1>
b0 8
b0 <
b101 :
b11111100010101010111001001110110 9
05
03
1"
#14300
0"
#14350
b1 8
b10 :
b11111100010101010111001001110110 <
0;
b1 A
b1111110001010101011100100111011 C
0D
1"
#14400
0"
#14450
b10 A
b111111000101010101110010011101 C
b111111000101010101110010011101100 E
b10 8
b1 :
1"
#14500
0"
#14550
b11 8
b0 :
b10011101101101010110011110001001110 <
b11 A
b11111100010101010111001001110 C
b10111101010000000001010111011000100 E
1"
#14600
0"
#14650
b100 A
b1111110001010101011100100111 C
b100 8
1"
#14700
0"
#14750
b101 8
b101 A
b111111000101010101110010011 C
b1010110101111010101111101011000100100 E
1"
#14800
0"
#14850
b110 A
b11111100010101010111001001 C
b11010100111010000001100010010011100100 E
b110 8
1"
#14900
0"
#14950
b111 8
b111 A
b1111110001010101011100100 C
b111010001001111011000101100001001100100 E
1"
#15000
0"
#15050
b1000 A
b111111000101010101110010 C
b1000 8
1"
#15100
0"
#15150
b1001 8
b1001 A
b11111100010101010111001 C
1"
#15200
0"
#15250
b1010 A
b1111110001010101011100 C
b100110110011111010010001111010111001100100 E
b1010 8
1"
#15300
0"
#15350
b1011 8
b1011 A
b111111000101010101110 C
1"
#15400
0"
#15450
b1100 A
b11111100010101010111 C
b1100 8
1"
#15500
0"
#15550
b1101 8
b1101 A
b1111110001010101011 C
b100100011001001010001011011110000111001100100 E
1"
#15600
0"
#15650
b1110 A
b111111000101010101 C
b1100011011110011111111101111011100111001100100 E
b1110 8
1"
#15700
0"
#15750
b1111 8
b1111 A
b11111100010101010 C
b11100001101001001011100010110110100111001100100 E
1"
#15800
0"
#15850
b10000 A
b1111110001010101 C
b10000 8
1"
#15900
0"
#15950
b10001 8
b10001 A
b111111000101010 C
b1011011010010011111001110110100010100111001100100 E
1"
#16000
0"
#16050
b10010 A
b11111100010101 C
b10010 8
1"
#16100
0"
#16150
b10011 8
b10011 A
b1111110001010 C
b101010111100111110110011000101010010100111001100100 E
1"
#16200
0"
#16250
b10100 A
b111111000101 C
b10100 8
1"
#16300
0"
#16350
b10101 8
b10101 A
b11111100010 C
b10101001000111101010011000000000010010100111001100100 E
1"
#16400
0"
#16450
b10110 A
b1111110001 C
b10110 8
1"
#16500
0"
#16550
b10111 8
b10111 A
b111111000 C
b1010100001110010011000101011101100010010100111001100100 E
1"
#16600
0"
#16650
b11000 A
b11111100 C
b11000 8
1"
#16700
0"
#16750
b11001 8
b11001 A
b1111110 C
1"
#16800
0"
#16850
b11010 A
b111111 C
b11010 8
1"
#16900
0"
#16950
b11011 8
b11011 A
b11111 C
b10001000101100011101111101100110101100010010100111001100100 E
1"
#17000
0"
#17050
b11100 A
b1111 C
b110000101000001110101000111011100101100010010100111001100100 E
b11100 8
1"
#17100
0"
#17150
b11101 8
b11101 A
b111 C
b1101111101101100100011011011001000101100010010100111001100100 E
1"
#17200
0"
#17250
b11110 A
b11 C
b11101101111000010000000000010100000101100010010100111001100100 E
b11110 8
1"
#17300
0"
#17350
b11111 8
b11111 A
b1 C
b111101010001101100111001010001010000101100010010100111001100100 E
1"
#17400
0"
#17450
b100000 A
b0 C
b1111100010111000010101011101110110000101100010010100111001100100 E
b100000 8
1"
#17500
0"
#17550
b11111111001101110101110100001111 /
b10011011101011101000011111110100 -
b10000101100010010100111001100100 *
0>
10
b10011101101101010110011110001001110 .
b10011101101101010110011110001001110 =
0G
1+
b1111100010111000010101011101110110000101100010010100111001100100 ,
b1111100010111000010101011101110110000101100010010100111001100100 F
1"
#17600
0"
#17650
b10001100011000010000101001101 1
b10001100011000010000101001101 6
b10001100011000010000101001101 ?
b10001100011000010000101001101 @
1"
#17700
0"
#17750
1"
#17800
0"
#17850
1"
#17900
0"
#17950
1"
#18000
0"
#18050
1"
#18100
0"
#18150
1"
#18200
0"
1'
#18250
b10001100011000010000101001101 !
b10001100011000010000101001101 2
14
1"
#18300
b10001100011000010000101001101 %
b10001100011000010000101001101 )
0"
0'
#18350
04
1"
#18400
0"
1#
#18450
15
13
1"
#18500
0"
0#
#18550
b0 /
b0 -
b0 *
05
03
b0 .
b0 =
00
1>
b0 8
b0 <
b101 :
b10001100011000010000101001101 9
1;
b0 ,
b0 F
0+
1G
b0 A
b0 E
b10001100011000010000101001101 C
b10001100011000010000101001101 B
1D
1"
#18600
0"
#18650
0D
b1 A
b1000110001100001000010100110 C
b10001100011000010000101001101 E
0;
b1 8
b10 :
b10001100011000010000101001101 <
1"
#18700
0"
#18750
b10 8
b1 :
b10 A
b100011000110000100001010011 C
1"
#18800
0"
#18850
b11 A
b10001100011000010000101001 C
b1010111101111001010011010000001 E
b11 8
b0 :
b1010111101111001010011010000001 <
1"
#18900
0"
#18950
b100 8
b100 A
b1000110001100001000010100 C
b11100100000111011011000011101001 E
1"
#19000
0"
#19050
b101 A
b100011000110000100001010 C
b101 8
1"
#19100
0"
#19150
b110 8
b110 A
b10001100011000010000101 C
1"
#19200
0"
#19250
b111 A
b1000110001100001000010 C
b10101000111001001100000010000101001 E
b111 8
1"
#19300
0"
#19350
b1000 8
b1000 A
b100011000110000100001 C
1"
#19400
0"
#19450
b1001 A
b10001100011000010000 C
b1011011010011010001110101000100101001 E
b1001 8
1"
#19500
0"
#19550
b1010 8
b1010 A
b1000110001100001000 C
1"
#19600
0"
#19650
b1011 A
b100011000110000100 C
b1011 8
1"
#19700
0"
#19750
b1100 8
b1100 A
b10001100011000010 C
1"
#19800
0"
#19850
b1101 A
b1000110001100001 C
b1101 8
1"
#19900
0"
#19950
b1110 8
b1110 A
b100011000110000 C
b100100100001010111011100001111000100101001 E
1"
#20000
0"
#20050
b1111 A
b10001100011000 C
b1111 8
1"
#20100
0"
#20150
b10000 8
b10000 A
b1000110001100 C
1"
#20200
0"
#20250
b10001 A
b100011000110 C
b10001 8
1"
#20300
0"
#20350
b10010 8
b10010 A
b10001100011 C
1"
#20400
0"
#20450
b10011 A
b1000110001 C
b10010000111100011011100101001001111000100101001 E
b10011 8
1"
#20500
0"
#20550
b10100 8
b10100 A
b100011000 C
b110101001101100111100111000011001111000100101001 E
1"
#20600
0"
#20650
b10101 A
b10001100 C
b10101 8
1"
#20700
0"
#20750
b10110 8
b10110 A
b1000110 C
1"
#20800
0"
#20850
b10111 A
b100011 C
b10111 8
1"
#20900
0"
#20950
b11000 8
b11000 A
b10001 C
b1001100110101110101010001101100011001111000100101001 E
1"
#21000
0"
#21050
b11001 A
b1000 C
b11011001001110000101111011010100011001111000100101001 E
b11001 8
1"
#21100
0"
#21150
b11010 8
b11010 A
b100 C
1"
#21200
0"
#21250
b11011 A
b10 C
b11011 8
1"
#21300
0"
#21350
b11100 8
b11100 A
b1 C
1"
#21400
0"
#21450
b11101 A
b0 C
b100110011111010010010000010101010100011001111000100101001 E
b11101 8
1"
#21500
0"
#21550
b11110 8
b11110 A
1"
#21600
0"
#21650
b11111 A
b11111 8
1"
#21700
0"
#21750
b100000 8
b100000 A
1"
#21800
0"
#21850
b101010011000000101101011 /
b1010100110000001011010111001101 -
b10101010100011001111000100101001 *
0G
1+
b100110011111010010010000010101010100011001111000100101001 ,
b100110011111010010010000010101010100011001111000100101001 F
0>
10
b1010111101111001010011010000001 .
b1010111101111001010011010000001 =
1"
#21900
0"
#21950
b10101000111011001101101101110110 1
b10101000111011001101101101110110 6
b10101000111011001101101101110110 ?
b10101000111011001101101101110110 @
1"
#22000
0"
#22050
1"
#22100
0"
#22150
1"
#22200
0"
#22250
1"
#22300
0"
#22350
1"
#22400
0"
#22450
1"
#22500
0"
1'
#22550
b10101000111011001101101101110110 !
b10101000111011001101101101110110 2
14
1"
#22600
b10101000111011001101101101110110 %
b10101000111011001101101101110110 )
0"
0'
#22650
04
1"
#22700
0"
1#
#22750
15
13
1"
#22800
0"
0#
#22850
b0 /
b0 -
b0 *
1D
b0 ,
b0 F
0+
1G
b0 A
b0 E
b10101000111011001101101101110110 C
b10101000111011001101101101110110 B
1;
b0 .
b0 =
00
1>
b0 8
b0 <
b101 :
b10101000111011001101101101110110 9
05
03
1"
#22900
0"
#22950
b1 8
b10 :
b10101000111011001101101101110110 <
0;
b1 A
b1010100011101100110110110111011 C
0D
1"
#23000
0"
#23050
b10 A
b101010001110110011011011011101 C
b101010001110110011011011011101100 E
b10 8
b1 :
1"
#23100
0"
#23150
b11 8
b0 :
b1101001100101000000100100101001110 <
b11 A
b10101000111011001101101101110 C
b1111110101100011010010010011000100 E
1"
#23200
0"
#23250
b100 A
b1010100011101100110110110111 C
b100 8
1"
#23300
0"
#23350
b101 8
b101 A
b101010001110110011011011011 C
b111010000100010110101101110000100100 E
1"
#23400
0"
#23450
b110 A
b10101000111011001101101101 C
b10001110100001111101100100101011100100 E
b110 8
1"
#23500
0"
#23550
b111 8
b111 A
b1010100011101100110110110 C
b100110111011101001011010010100001100100 E
1"
#23600
0"
#23650
b1000 A
b101010001110110011011011 C
b1000 8
1"
#23700
0"
#23750
b1001 8
b1001 A
b10101000111011001101101 C
b1111011011001010000010001001111001100100 E
1"
#23800
0"
#23850
b1010 A
b1010100011101100110110 C
b100100100010100011101111111000101001100100 E
b1010 8
1"
#23900
0"
#23950
b1011 8
b1011 A
b101010001110110011011 C
1"
#24000
0"
#24050
b1100 A
b10101000111011001101 C
b1111001000000001010100110110011101001100100 E
b1100 8
1"
#24100
0"
#24150
b1101 8
b1101 A
b1010100011101100110 C
b100100001111011011000010100101001101001100100 E
1"
#24200
0"
#24250
b1110 A
b101010001110110011 C
b1110 8
1"
#24300
0"
#24350
b1111 8
b1111 A
b10101000111011001 C
b1111000101101000001111001100000001101001100100 E
1"
#24400
0"
#24450
b10000 A
b1010100011101100 C
b100100001101000001111100111010110001101001100100 E
b10000 8
1"
#24500
0"
#24550
b10001 8
b10001 A
b101010001110110 C
1"
#24600
0"
#24650
b10010 A
b10101000111011 C
b10010 8
1"
#24700
0"
#24750
b10011 8
b10011 A
b1010100011101 C
b11001101001000001111101010110000110001101001100100 E
1"
#24800
0"
#24850
b10100 A
b101010001110 C
b1000011110111110101011000110011100110001101001100100 E
b10100 8
1"
#24900
0"
#24950
b10101 8
b10101 A
b10101000111 C
1"
#25000
0"
#25050
b10110 A
b1010100011 C
b11101100110011000011000110101001100110001101001100100 E
b10110 8
1"
#25100
0"
#25150
b10111 8
b10111 A
b101010001 C
b1000111110101001011110100010010101100110001101001100100 E
1"
#25200
0"
#25250
b11000 A
b10101000 C
b10011100010010110010101011001101101100110001101001100100 E
b11000 8
1"
#25300
0"
#25350
b11001 8
b11001 A
b1010100 C
1"
#25400
0"
#25450
b11010 A
b101010 C
b11010 8
1"
#25500
0"
#25550
b11011 8
b11011 A
b10101 C
1"
#25600
0"
#25650
b11100 A
b1010 C
b10111100011101100100000011001111101101100110001101001100100 E
b11100 8
1"
#25700
0"
#25750
b11101 8
b11101 A
b101 C
1"
#25800
0"
#25850
b11110 A
b10 C
b1101100000001010011010111010100111101101100110001101001100100 E
b11110 8
1"
#25900
0"
#25950
b11111 8
b11111 A
b1 C
1"
#26000
0"
#26050
b100000 A
b0 C
b110111101110111101110110011000000111101101100110001101001100100 E
b100000 8
1"
#26100
0"
#26150
b11010001111111100000111 /
b110100011111111000001111110100 -
b111101101100110001101001100100 *
0>
10
b1101001100101000000100100101001110 .
b1101001100101000000100100101001110 =
0G
1+
b110111101110111101110110011000000111101101100110001101001100100 ,
b110111101110111101110110011000000111101101100110001101001100100 F
1"
#26200
0"
#26250
b10110011110010001011011001000101 1
b10110011110010001011011001000101 6
b10110011110010001011011001000101 ?
b10110011110010001011011001000101 @
1"
#26300
0"
#26350
1"
#26400
0"
#26450
1"
#26500
0"
#26550
1"
#26600
0"
#26650
1"
#26700
0"
#26750
1"
#26800
0"
1'
#26850
b10110011110010001011011001000101 !
b10110011110010001011011001000101 2
14
1"
#26900
b10110011110010001011011001000101 %
b10110011110010001011011001000101 )
0"
0'
#26950
04
1"
#27000
0"
1#
#27050
15
13
1"
#27100
0"
0#
#27150
b0 /
b0 -
b0 *
05
03
b0 .
b0 =
00
1>
b0 8
b0 <
b101 :
b10110011110010001011011001000101 9
1;
b0 ,
b0 F
0+
1G
b0 A
b0 E
b10110011110010001011011001000101 C
b10110011110010001011011001000101 B
1D
1"
#27200
0"
#27250
0D
b1 A
b1011001111001000101101100100010 C
b10110011110010001011011001000101 E
0;
b1 8
b10 :
b10110011110010001011011001000101 <
1"
#27300
0"
#27350
b10 8
b1 :
b10 A
b101100111100100010110110010001 C
1"
#27400
0"
#27450
b11 A
b10110011110010001011011001000 C
b1110000010111010111000111101011001 E
b11 8
b0 :
b1110000010111010111000111101011001 <
1"
#27500
0"
#27550
b100 8
b100 A
b1011001111001000101101100100 C
1"
#27600
0"
#27650
b101 A
b101100111100100010110110010 C
b101 8
1"
#27700
0"
#27750
b110 8
b110 A
b10110011110010001011011001 C
1"
#27800
0"
#27850
b111 A
b1011001111001000101101100 C
b11000001110101000110010010000010011001 E
b111 8
1"
#27900
0"
#27950
b1000 8
b1000 A
b101100111100100010110110 C
1"
#28000
0"
#28050
b1001 A
b10110011110010001011011 C
b1001 8
1"
#28100
0"
#28150
b1010 8
b1010 A
b1011001111001000101101 C
b11001100000000110100001011010101010011001 E
1"
#28200
0"
#28250
b1011 A
b101100111100100010110 C
b1000110011100101001010111101011111010011001 E
b1011 8
1"
#28300
0"
#28350
b1100 8
b1100 A
b10110011110010001011 C
1"
#28400
0"
#28450
b1101 A
b1011001111001000101 C
b11111010001110110100110000110000111010011001 E
b1101 8
1"
#28500
0"
#28550
b1110 8
b1110 A
b101100111100100010 C
b1001100001110011001011100010111010111010011001 E
1"
#28600
0"
#28650
b1111 A
b10110011110010001 C
b1111 8
1"
#28700
0"
#28750
b10000 8
b10000 A
b1011001111001000 C
b100000000000000100100110101011100010111010011001 E
1"
#28800
0"
#28850
b10001 A
b101100111100100 C
b10001 8
1"
#28900
0"
#28950
b10010 8
b10010 A
b10110011110010 C
1"
#29000
0"
#29050
b10011 A
b1011001111001 C
b10011 8
1"
#29100
0"
#29150
b10100 8
b10100 A
b101100111100 C
b110000111100100011011011000110101100010111010011001 E
1"
#29200
0"
#29250
b10101 A
b10110011110 C
b10101 8
1"
#29300
0"
#29350
b10110 8
b10110 A
b1011001111 C
1"
#29400
0"
#29450
b10111 A
b101100111 C
b110011000100000111010001101010000101100010111010011001 E
b10111 8
1"
#29500
0"
#29550
b11000 8
b11000 A
b10110011 C
b10001100111101001100111110001100100101100010111010011001 E
1"
#29600
0"
#29650
b11001 A
b1011001 C
b101000000101111011000010111010001100101100010111010011001 E
b11001 8
1"
#29700
0"
#29750
b11010 8
b11010 A
b101100 C
b1010101000010011101111001001011011100101100010111010011001 E
1"
#29800
0"
#29850
b11011 A
b10110 C
b11011 8
1"
#29900
0"
#29950
b11100 8
b11100 A
b1011 C
1"
#30000
0"
#30050
b11101 A
b101 C
b110111100100110110100101011010101011100101100010111010011001 E
b11101 8
1"
#30100
0"
#30150
b11110 8
b11110 A
b10 C
b10010001011101111100010001111101001011100101100010111010011001 E
1"
#30200
0"
#30250
b11111 A
b1 C
b11111 8
1"
#30300
0"
#30350
b100000 8
b100000 A
b0 C
b111111001000010010011000100000111001011100101100010111010011001 E
1"
#30400
0"
#30450
b11111111111100111101110111010001 /
b11111001111011101110100011111101 -
b11001011100101100010111010011001 *
0G
1+
b111111001000010010011000100000111001011100101100010111010011001 ,
b111111001000010010011000100000111001011100101100010111010011001 F
0>
10
b1110000010111010111000111101011001 .
b1110000010111010111000111101011001 =
1"
#30500
0"
#30550
b1111101000010000100111100000100 1
b1111101000010000100111100000100 6
b1111101000010000100111100000100 ?
b1111101000010000100111100000100 @
1"
#30600
0"
#30650
1"
#30700
0"
#30750
1"
#30800
0"
#30850
1"
#30900
0"
#30950
1"
#31000
0"
#31050
1"
#31100
0"
1'
#31150
b1111101000010000100111100000100 !
b1111101000010000100111100000100 2
14
1"
#31200
b1111101000010000100111100000100 %
b1111101000010000100111100000100 )
0"
0'
#31250
04
1"
#31300
0"
1#
#31350
15
13
1"
#31400
0"
0#
#31450
b0 /
b0 -
b0 *
1D
b0 ,
b0 F
0+
1G
b0 A
b0 E
b1111101000010000100111100000100 C
b1111101000010000100111100000100 B
1;
b0 .
b0 =
00
1>
b0 8
b0 <
b101 :
b1111101000010000100111100000100 9
05
03
1"
#31500
0"
#31550
b1 8
b10 :
b1111101000010000100111100000100 <
0;
b1 A
b111110100001000010011110000010 C
0D
1"
#31600
0"
#31650
b10 A
b11111010000100001001111000001 C
b10 8
b1 :
1"
#31700
0"
#31750
b11 8
b0 :
b1001110001001010011000101100010100 <
b11 A
b1111101000010000100111100000 C
b111110100001000010011110000010000 E
1"
#31800
0"
#31850
b100 A
b111110100001000010011110000 C
b100 8
1"
#31900
0"
#31950
b101 8
b101 A
b11111010000100001001111000 C
1"
#32000
0"
#32050
b110 A
b1111101000010000100111100 C
b110 8
1"
#32100
0"
#32150
b111 8
b111 A
b111110100001000010011110 C
1"
#32200
0"
#32250
b1000 A
b11111010000100001001111 C
b1000 8
1"
#32300
0"
