RISC_V/CPU/cpu_debug.vcd
$date
	Thu Jan 15 18:30:34 2026
$end
$version
	Icarus Verilog
$end
$timescale
	1s
$end
$scope module CPU_debug $end
$var reg 1 ! CLK $end
$var reg 1 " RESET $end
$scope module cpu $end
$var wire 1 # BUBBLE_FOR_ID_EX $end
$var wire 1 ! CLK $end
$var wire 1 $ FLUSH_TRIGGER $end
$var wire 1 " RESET $end
$var wire 1 % WRITEENABLE_MEMOUT $end
$var wire 1 & WRITEENABLE_IDOUT $end
$var wire 1 ' WRITEENABLE_EXOUT $end
$var wire 1 ( WRITEENABLE $end
$var wire 32 ) WRITEDATA [31:0] $end
$var wire 5 * WRITEADDRESS_MEMOUT [4:0] $end
$var wire 5 + WRITEADDRESS_IDOUT [4:0] $end
$var wire 5 , WRITEADDRESS_EXOUT [4:0] $end
$var wire 32 - TARGETEDADDRESS [31:0] $end
$var wire 5 . RS2 [4:0] $end
$var wire 5 / RS1 [4:0] $end
$var wire 32 0 READDATA_MEMOUT [31:0] $end
$var wire 32 1 PC_PLUS_4_OUT [31:0] $end
$var wire 32 2 PC_PLUS_4_IDOUT [31:0] $end
$var wire 32 3 PC_PLUS_4 [31:0] $end
$var wire 32 4 PC_OUT [31:0] $end
$var wire 32 5 PC_MUX_OUT [31:0] $end
$var wire 32 6 PC_IDOUT [31:0] $end
$var wire 32 7 PCOUT [31:0] $end
$var wire 1 8 PCADDRESSCONTROLLER $end
$var wire 2 9 Out_Load_Use_Hazard_RS2 [1:0] $end
$var wire 2 : Out_Load_Use_Hazard_RS1 [1:0] $end
$var wire 2 ; OFFSETGENARATOR_IDOUT [1:0] $end
$var wire 2 < OFFSETGENARATOR [1:0] $end
$var wire 1 = MEMWRITE_IDOUT $end
$var wire 1 > MEMWRITE_EXOUT $end
$var wire 1 ? MEMWRITE $end
$var wire 1 @ MEMREAD_IDOUT $end
$var wire 1 A MEMREAD_EXOUT $end
$var wire 1 B MEMREAD $end
$var wire 1 C MEMORYACCESS_MEMOUT $end
$var wire 1 D MEMORYACCESS_IDOUT $end
$var wire 1 E MEMORYACCESS_EXOUT $end
$var wire 1 F MEMORYACCESS $end
$var wire 1 G JUMP_IDOUT $end
$var wire 1 H JUMPANDLINK $end
$var wire 1 I JUMP $end
$var wire 32 J JAL_MUX_OUT [31:0] $end
$var wire 1 K JAL_IDOUT $end
$var wire 32 L INSTRUCTION_WITH_FLUSH [31:0] $end
$var wire 32 M INSTRUCTION_OUT [31:0] $end
$var wire 32 N INSTRUCTION [31:0] $end
$var wire 32 O IMMEDIATE_VALUE_IDOUT [31:0] $end
$var wire 32 P IMMEDIATE_VALUE [31:0] $end
$var wire 3 Q IMMEDIATE_TYPE [2:0] $end
$var wire 2 R IMMEDIATESELECT_IDOUT [1:0] $end
$var wire 2 S IMMEDIATESELECT [1:0] $end
$var wire 3 T FUNCT3_IDOUT [2:0] $end
$var wire 3 U FUNCT3_EXOUT [2:0] $end
$var wire 2 V FRWD_RS2_WB [1:0] $end
$var wire 2 W FRWD_RS1_WB [1:0] $end
$var wire 2 X FORWARD_RS2 [1:0] $end
$var wire 2 Y FORWARD_RS1 [1:0] $end
$var wire 1 Z FORWARD_MEMORY_IDOUT $end
$var wire 1 [ FORWARD_MEMORY_EXOUT $end
$var wire 1 \ FORWARD_MEMORY $end
$var wire 32 ] Data2_MUX_OUT [31:0] $end
$var wire 32 ^ Data1_MUX_OUT [31:0] $end
$var wire 32 _ DATA_OUT [31:0] $end
$var wire 32 ` DATA2_IDOUT [31:0] $end
$var wire 32 a DATA2_FORWARD [31:0] $end
$var wire 32 b DATA2_EXOUT [31:0] $end
$var wire 32 c DATA2 [31:0] $end
$var wire 32 d DATA1_IDOUT [31:0] $end
$var wire 32 e DATA1 [31:0] $end
$var wire 2 f ControlUnitOFFSETGENARATOR [1:0] $end
$var wire 2 g ControlUnitIMMEDIATESELECT [1:0] $end
$var wire 1 h BUSYWAIT $end
$var wire 1 i BUBBLE $end
$var wire 1 j BRANCH_IDOUT $end
$var wire 1 k BRANCH $end
$var wire 5 l ALU_OPCODE_IDOUT [4:0] $end
$var wire 5 m ALU_OPCODE [4:0] $end
$var wire 32 n ALURESULT_MEMOUT [31:0] $end
$var wire 32 o ALURESULT_EXOUT [31:0] $end
$var wire 32 p ALURESULT [31:0] $end
$scope module ALU $end
$var wire 64 q mulhu_result [63:0] $end
$var wire 64 r mulhsu_result [63:0] $end
$var wire 64 s mulh_result [63:0] $end
$var wire 32 t data2 [31:0] $end
$var wire 32 u data1 [31:0] $end
$var wire 32 v MULH_result [31:0] $end
$var wire 32 w MULHU_result [31:0] $end
$var wire 32 x MULHSU_result [31:0] $end
$var wire 5 y ALU_OPCODE [4:0] $end
$var reg 32 z Output [31:0] $end
$upscope $end
$scope module BranchController1 $end
$var wire 32 { ALUresult [31:0] $end
$var wire 3 | func3 [2:0] $end
$var wire 32 } data2 [31:0] $end
$var wire 32 ~ data1 [31:0] $end
$var wire 1 G Jump $end
$var wire 1 j Branch $end
$var reg 1 8 PCAddressController $end
$var reg 32 !" TargetedAddress [31:0] $end
$upscope $end
$scope module Data1_MUX $end
$var wire 2 "" SELECT [1:0] $end
$var wire 32 #" INPUT_3 [31:0] $end
$var wire 32 $" INPUT_2 [31:0] $end
$var wire 32 %" INPUT_1 [31:0] $end
$var wire 32 &" INPUT_0 [31:0] $end
$var reg 32 '" OUTPUT [31:0] $end
$upscope $end
$scope module Data2_MUX $end
$var wire 2 (" SELECT [1:0] $end
$var wire 32 )" INPUT_3 [31:0] $end
$var wire 32 *" INPUT_2 [31:0] $end
$var wire 32 +" INPUT_1 [31:0] $end
$var wire 32 ," INPUT_0 [31:0] $end
$var reg 32 -" OUTPUT [31:0] $end
$upscope $end
$scope module EX_MEM_pipeline1 $end
$var wire 1 ! CLK $end
$var wire 1 " RESET $end
$var wire 1 & WRITE_ENABLE $end
$var wire 5 ." WRITE_ADDRESS [4:0] $end
$var wire 1 = MEM_WRITE $end
$var wire 1 @ MEM_READ $end
$var wire 1 D MEM_ACCESS $end
$var wire 3 /" FUNCT3 [2:0] $end
$var wire 1 Z FORWARD_MEMORY $end
$var wire 32 0" DATA2 [31:0] $end
$var wire 32 1" ALU_OUTPUT [31:0] $end
$var reg 32 2" ALU_OUTPUT_OUT [31:0] $end
$var reg 32 3" DATA2_OUT [31:0] $end
$var reg 3 4" FUNCT3_OUT [2:0] $end
$var reg 1 E MEM_ACCESS_OUT $end
$var reg 1 A MEM_READ_OUT $end
$var reg 1 > MEM_WRITE_OUT $end
$var reg 1 [ OUT_FORWARD_MEMORY $end
$var reg 5 5" WRITE_ADDRESS_OUT [4:0] $end
$var reg 1 ' WRITE_ENABLE_OUT $end
$upscope $end
$scope module ID_EXPipeline1 $end
$var wire 1 # BUBBLE $end
$var wire 1 ! CLK $end
$var wire 1 " Reset $end
$var wire 1 6" STALL $end
$var wire 32 7" instruction [31:0] $end
$var wire 1 ( Write_Enable $end
$var wire 32 8" PC_next [31:0] $end
$var wire 32 9" PC [31:0] $end
$var wire 2 :" Offset_Generate [1:0] $end
$var wire 1 F Memory_Access $end
$var wire 1 ? Mem_Write $end
$var wire 1 B Mem_Read $end
$var wire 2 ;" Load_Use_Hazard_RS2 [1:0] $end
$var wire 2 <" Load_Use_Hazard_RS1 [1:0] $end
$var wire 1 H Jump_and_Link $end
$var wire 1 I Jump $end
$var wire 32 =" Immediate_value [31:0] $end
$var wire 2 >" Immediate_Select [1:0] $end
$var wire 1 \ FORWARD_MEMORY $end
$var wire 32 ?" Data2 [31:0] $end
$var wire 32 @" Data1 [31:0] $end
$var wire 1 k Branch $end
$var wire 5 A" ALU_Opcode [4:0] $end
$var reg 1 Z OUT_FORWARD_MEMORY $end
$var reg 5 B" Out_ALU_Opcode [4:0] $end
$var reg 1 j Out_Branch $end
$var reg 32 C" Out_Data1 [31:0] $end
$var reg 32 D" Out_Data2 [31:0] $end
$var reg 2 E" Out_Immediate_Select [1:0] $end
$var reg 32 F" Out_Immediate_value [31:0] $end
$var reg 1 G Out_Jump $end
$var reg 1 K Out_Jump_and_Link $end
$var reg 2 G" Out_Load_Use_Hazard_RS1 [1:0] $end
$var reg 2 H" Out_Load_Use_Hazard_RS2 [1:0] $end
$var reg 1 @ Out_Mem_Read $end
$var reg 1 = Out_Mem_Write $end
$var reg 1 D Out_Memory_Access $end
$var reg 2 I" Out_Offset_Generate [1:0] $end
$var reg 32 J" Out_PC [31:0] $end
$var reg 32 K" Out_PC_next [31:0] $end
$var reg 5 L" Out_WriteAddress [4:0] $end
$var reg 1 & Out_Write_Enable $end
$var reg 3 M" Out_func3 [2:0] $end
$upscope $end
$scope module ID_IF_register1 $end
$var wire 1 ! CLK $end
$var wire 32 N" INSTRUCTION [31:0] $end
$var wire 1 " RESET $end
$var wire 32 O" PC_PLUS_4 [31:0] $end
$var wire 32 P" PC [31:0] $end
$var wire 1 i BUBBLE $end
$var reg 32 Q" INSTRUCTION_OUT [31:0] $end
$var reg 32 R" PC_OUT [31:0] $end
$var reg 32 S" PC_PLUS_4_OUT [31:0] $end
$upscope $end
$scope module JAL_MUX $end
$var wire 32 T" INPUT_0 [31:0] $end
$var wire 32 U" INPUT_1 [31:0] $end
$var wire 1 K SELECT $end
$var reg 32 V" OUTPUT [31:0] $end
$upscope $end
$scope module LoadUseComparator1 $end
$var wire 2 W" FORWARD_RS1 [1:0] $end
$var wire 2 X" FORWARD_RS2 [1:0] $end
$var wire 2 Y" LOAD_USE_RS1 [1:0] $end
$var wire 2 Z" LOAD_USE_RS2 [1:0] $end
$var reg 2 [" CORRECT_FORWARD_RS1 [1:0] $end
$var reg 2 \" CORRECT_FORWARD_RS2 [1:0] $end
$upscope $end
$scope module MEM_WBPipeline1 $end
$var wire 32 ]" ALU_Output [31:0] $end
$var wire 1 ! CLK $end
$var wire 1 E Memory_access $end
$var wire 1 " Reset $end
$var wire 5 ^" Write_Address [4:0] $end
$var wire 1 ' Write_enable $end
$var wire 32 _" Memory_Data [31:0] $end
$var reg 32 `" ALU_Output_Out [31:0] $end
$var reg 32 a" Memory_Data_Out [31:0] $end
$var reg 1 C Memory_access_Out $end
$var reg 5 b" Write_Address_out [4:0] $end
$var reg 1 % Write_Enable_Out $end
$upscope $end
$scope module Memory_access_MUX $end
$var wire 32 c" INPUT_0 [31:0] $end
$var wire 32 d" INPUT_1 [31:0] $end
$var wire 1 C SELECT $end
$var reg 32 e" OUTPUT [31:0] $end
$upscope $end
$scope module PC_MUX $end
$var wire 32 f" INPUT_1 [31:0] $end
$var wire 1 8 SELECT $end
$var wire 32 g" INPUT_0 [31:0] $end
$var reg 32 h" OUTPUT [31:0] $end
$upscope $end
$scope module controlunit1 $end
$var wire 32 i" INSTRUCTION [31:0] $end
$var wire 7 j" OPCODE [6:0] $end
$var wire 7 k" FUNCT7 [6:0] $end
$var wire 3 l" FUNCT3 [2:0] $end
$var reg 5 m" ALU_OPCODE [4:0] $end
$var reg 1 k BRANCH $end
$var reg 2 n" IMMEDIATE_SELECT [1:0] $end
$var reg 3 o" IMMEDIATE_TYPE [2:0] $end
$var reg 1 I JUMP $end
$var reg 1 H JUMP_AND_LINK $end
$var reg 1 F MEMORY_ACCESS $end
$var reg 1 B MEM_READ $end
$var reg 1 ? MEM_WRITE $end
$var reg 2 p" OFFSET_GENARATOR [1:0] $end
$var reg 1 ( WRITE_ENABLE $end
$upscope $end
$scope module datamemory1 $end
$var wire 32 q" ADDRESS [31:0] $end
$var wire 1 ! CLK $end
$var wire 3 r" FUNCT3 [2:0] $end
$var wire 1 A READ $end
$var wire 1 " RESET $end
$var wire 1 > WRITE $end
$var wire 32 s" WRITEDATA [31:0] $end
$var reg 1 h BUSYWAIT $end
$var reg 32 t" READDATA [31:0] $end
$var integer 32 u" i [31:0] $end
$upscope $end
$scope module datamemory_MUX $end
$var wire 32 v" INPUT_0 [31:0] $end
$var wire 32 w" INPUT_1 [31:0] $end
$var wire 1 [ SELECT $end
$var reg 32 x" OUTPUT [31:0] $end
$upscope $end
$scope module imidiateGenarator1 $end
$var wire 3 y" IMMEDIATE_TYPE [2:0] $end
$var wire 32 z" INSTRUCTION [31:0] $end
$var reg 32 {" IMMEDIATE_VALUE [31:0] $end
$upscope $end
$scope module immForwarding $end
$var wire 2 |" ControlUnit_IMMEDIATE_SELECT [1:0] $end
$var wire 2 }" ControlUnit_OFFSET_GENARATOR [1:0] $end
$var wire 32 ~" INSTRUCTION [31:0] $end
$var wire 5 !# RD_imm_old [4:0] $end
$var wire 5 "# RD_old_old [4:0] $end
$var wire 5 ## SR2 [4:0] $end
$var wire 5 $# SR1 [4:0] $end
$var wire 5 %# RD [4:0] $end
$var wire 7 &# OPCODE [6:0] $end
$var reg 2 '# Data1_OffsetGenarator [1:0] $end
$var reg 2 (# Data2_ImmediateSelect [1:0] $end
$upscope $end
$scope module instructionmem1 $end
$var wire 1 " RESET $end
$var wire 32 )# PC [31:0] $end
$var reg 32 *# INSTRUCTION [31:0] $end
$upscope $end
$scope module load_use_hazard1 $end
$var wire 1 @ EX_MEMREAD $end
$var wire 1 ? MEM_WRITE $end
$var wire 5 +# RS1 [4:0] $end
$var wire 5 ,# RS2 [4:0] $end
$var wire 5 -# WRITEADDRESS_IDOUT [4:0] $end
$var reg 1 i BUBBLE $end
$var reg 1 \ FORWARD_MEMORY $end
$var reg 2 .# FRWD_RS1_WB [1:0] $end
$var reg 2 /# FRWD_RS2_WB [1:0] $end
$upscope $end
$scope module pc1 $end
$var wire 1 i BUBBLE $end
$var wire 1 ! CLK $end
$var wire 32 0# PCIN [31:0] $end
$var wire 1 " RESET $end
$var reg 32 1# PCOUT [31:0] $end
$upscope $end
$scope module pc_4_adder $end
$var wire 32 2# PC [31:0] $end
$var wire 32 3# PCPLUS4 [31:0] $end
$upscope $end
$scope module registerfile1 $end
$var wire 1 ! CLK $end
$var wire 1 " RESET $end
$var wire 5 4# RS1 [4:0] $end
$var wire 5 5# RS2 [4:0] $end
$var wire 5 6# WRITEADDRESS [4:0] $end
$var wire 32 7# WRITEDATA [31:0] $end
$var wire 1 % WRITEENABLE $end
$var reg 32 8# DATA1 [31:0] $end
$var reg 32 9# DATA2 [31:0] $end
$upscope $end
$upscope $end
$upscope $end
$enddefinitions $end
$comment Show the parameter values. $end
$dumpall
$end
#0
$dumpvars
bx 9#
bx 8#
bx 7#
bx 6#
bx 5#
bx 4#
bx 3#
bx 2#
bx 1#
bx 0#
bx /#
bx .#
bx -#
bx ,#
bx +#
bx *#
bx )#
bx (#
bx '#
bx &#
bx %#
bx $#
bx ##
bx "#
bx !#
bx ~"
bx }"
bx |"
bx {"
bx z"
bx y"
bx x"
bx w"
bx v"
b10000000000 u"
bx t"
bx s"
bx r"
bx q"
bx p"
bx o"
bx n"
bx m"
bx l"
bx k"
bx j"
bx i"
bx h"
bx g"
bx f"
bx e"
bx d"
bx c"
bx b"
bx a"
bx `"
bx _"
bx ^"
bx ]"
bx \"
bx ["
bx Z"
bx Y"
bx X"
bx W"
bx V"
bx U"
bx T"
bx S"
bx R"
bx Q"
bx P"
bx O"
bx N"
bx M"
bx L"
bx K"
bx J"
bx I"
bx H"
bx G"
bx F"
bx E"
bx D"
bx C"
bx B"
bx A"
bx @"
bx ?"
bx >"
bx ="
bx <"
bx ;"
bx :"
bx 9"
bx 8"
bx 7"
z6"
bx 5"
bx 4"
bx 3"
bx 2"
bx 1"
bx 0"
bx /"
bx ."
bx -"
bx ,"
bx +"
bx *"
bx )"
bx ("
bx '"
bx &"
bx %"
bx $"
bx #"
bx ""
bx !"
bx ~
bx }
bx |
bx {
bx z
bx y
bx x
bx w
bx v
bx u
bx t
bx s
bx r
bx q
bx p
bx o
bx n
bx m
bx l
xk
xj
xi
xh
bx g
bx f
bx e
bx d
bx c
bx b
bx a
bx `
bx _
bx ^
bx ]
x\
x[
xZ
bx Y
bx X
bx W
bx V
bx U
bx T
bx S
bx R
bx Q
bx P
bx O
bx N
bx M
bx L
xK
bx J
xI
xH
xG
xF
xE
xD
xC
xB
xA
x@
x?
x>
x=
bx <
bx ;
bx :
bx 9
x8
bx 7
bx 6
bx 5
bx 4
bx 3
bx 2
bx 1
bx 0
bx /
bx .
bx -
bx ,
bx +
bx *
bx )
x(
x'
x&
x%
x$
x#
1"
0!
$end
#1
b0 V
b0 ;"
b0 /#
b0 W
b0 <"
b0 .#
0i
0\
b0 j"
b0 l"
b0 k"
b0 &#
b0 $#
b0 ##
b0 %#
b0 .
b0 ,#
b0 5#
b0 /
b0 +#
b0 4#
b0 L
b0 N"
b0 1
b0 8"
b0 S"
b0 4
b0 9"
b0 R"
b0 M
b0 7"
b0 Q"
b0 i"
b0 z"
b0 ~"
b0 N
b0 *#
#2
0#
0$
08
#3
b0 c
b0 ?"
b0 9#
b0 e
b0 @"
b0 8#
#5
1!
#7
b0 7
b0 P"
b0 )#
b0 1#
b0 2#
#8
b100 5
b100 h"
b100 0#
b100 3
b100 O"
b100 g"
b100 3#
#10
0!
0"
#11
b1000100110111 L
b1000100110111 N"
b1000100110111 N
b1000100110111 *#
#15
1!
#17
b0 J
b0 1"
b0 V"
b0 ^
b0 u
b0 '"
b110111 j"
b1 l"
b110111 &#
b10 %#
b0 9
b0 H"
b0 Z"
b0 :
b0 G"
b0 Y"
0Z
b0 T
b0 |
b0 /"
b0 M"
b0 +
b0 ."
b0 L"
b0 !#
b0 -#
b0 `
b0 }
b0 ,"
b0 0"
b0 D"
b0 d
b0 ~
b0 &"
b0 C"
b0 2
b0 K"
b0 U"
b0 6
b0 %"
b0 J"
b100 7
b100 P"
b100 )#
b100 1#
b100 2#
b100 1
b100 8"
b100 S"
b1000100110111 M
b1000100110111 7"
b1000100110111 Q"
b1000100110111 i"
b1000100110111 z"
b1000100110111 ~"
#18
b100000000000000011101111 L
b100000000000000011101111 N"
b100000000000000011101111 N
b100000000000000011101111 *#
b10 S
b10 >"
b10 (#
b0 <
b0 :"
b0 '#
b1000 5
b1000 h"
b1000 0#
b0 p
b0 z
b0 {
b0 T"
b10001 m
b10001 A"
b10001 m"
0I
0k
b0 f
b0 p"
b0 }"
b10 g
b10 n"
b10 |"
0H
0B
0?
0F
1(
b11 Q
b11 o"
b11 y"
b1000 3
b1000 O"
b1000 g"
b1000 3#
#19
b0 -
b0 !"
b0 f"
b1000000000000 P
b1000000000000 ="
b1000000000000 {"
#20
0!
#25
1!
#27
b0 x
b0 w
b0 v
b10 X
b10 ("
b10 \"
b0 Y
b0 ""
b0 ["
b0 a
b0 s"
b0 x"
b0 r
b0 q
b0 s
b1000000000000 ]
b1000000000000 t
b1000000000000 -"
b1101111 j"
b0 l"
b1101111 &#
b1000 ##
b1 %#
b1000 .
b1000 ,#
b1000 5#
b1000 7
b1000 P"
b1000 )#
b1000 1#
b1000 2#
b1000000000000 O
b1000000000000 +"
b1000000000000 F"
b1 T
b1 |
b1 /"
b1 M"
b10 +
b10 ."
b10 L"
b10 !#
b10 -#
b100 2
b100 K"
b100 U"
b10001 l
b10001 y
b10001 B"
0G
0j
b0 ;
b0 I"
b0 W"
b10 R
b10 E"
b10 X"
0K
0@
0=
0D
1&
0[
b0 b
b0 3"
b0 v"
b0 U
b0 4"
b0 r"
b0 ,
b0 5"
b0 ^"
b0 "#
b0 o
b0 $"
b0 *"
b0 2"
b0 ]"
b0 q"
b1000 1
b1000 8"
b1000 S"
b100 4
b100 9"
b100 R"
b100000000000000011101111 M
b100000000000000011101111 7"
b100000000000000011101111 Q"
b100000000000000011101111 i"
b100000000000000011101111 z"
b100000000000000011101111 ~"
#28
b1101111 L
b1101111 N"
b1101111 N
b1101111 *#
b10 <
b10 :"
b10 '#
b1000000000000 J
b1000000000000 1"
b1000000000000 V"
b1100 5
b1100 h"
b1100 0#
b0 m
b0 A"
b0 m"
1I
b10 f
b10 p"
b10 }"
1H
b10 Q
b10 o"
b10 y"
b1000000000000 p
b1000000000000 z
b1000000000000 {
b1000000000000 T"
b1100 3
b1100 O"
b1100 g"
b1100 3#
#29
b1000000000000 -
b1000000000000 !"
b1000000000000 f"
b1000 P
b1000 ="
b1000 {"
#30
0!
#35
1!
#37
0h
b1000 ]
b1000 t
b1000 -"
b100000 r
b100000 q
b100000 s
b100 ^
b100 u
b100 '"
b10 Y
b10 ""
b10 ["
b1000 J
b1000 1"
b1000 V"
b0 ##
b0 %#
b0 .
b0 ,#
b0 5#
b0 *
b0 b"
b0 6#
b0 n
b0 `"
b0 c"
b1 U
b1 4"
b1 r"
b10 ,
b10 5"
b10 ^"
b10 "#
b1000000000000 o
b1000000000000 $"
b1000000000000 *"
b1000000000000 2"
b1000000000000 ]"
b1000000000000 q"
0A
0>
0E
1'
b1000 O
b1000 +"
b1000 F"
b0 T
b0 |
b0 /"
b0 M"
b1 +
b1 ."
b1 L"
b1 !#
b1 -#
b1000 2
b1000 K"
b1000 U"
b100 6
b100 %"
b100 J"
b0 l
b0 y
b0 B"
1G
b10 ;
b10 I"
b10 W"
1K
b1100 7
b1100 P"
b1100 )#
b1100 1#
b1100 2#
b1100 1
b1100 8"
b1100 S"
b1000 4
b1000 9"
b1000 R"
b1101111 M
b1101111 7"
b1101111 Q"
b1101111 i"
b1101111 z"
b1101111 ~"
#38
b1000000000000011110010011 N
b1000000000000011110010011 *#
1#
b0 L
b0 N"
b1000000000000 5
b1000000000000 h"
b1000000000000 0#
1$
18
b10000 3
b10000 O"
b10000 g"
b10000 3#
#39
b1100 p
b1100 z
b1100 {
b1100 T"
b0 P
b0 ="
b0 {"
#40
b1100 5
b1100 h"
b1100 0#
b1100 -
b1100 !"
b1100 f"
0!
#45
1!
#47
b0 X
b0 ("
b0 \"
b0 Y
b0 ""
b0 ["
b1100 J
b1100 1"
b1100 V"
b0 ^
b0 u
b0 '"
b0 r
b0 q
b0 s
b0 ]
b0 t
b0 -"
b1000000000000 )
b1000000000000 #"
b1000000000000 )"
b1000000000000 e"
b1000000000000 w"
b1000000000000 7#
b0 j"
b0 &#
b0 O
b0 +"
b0 F"
b0 +
b0 ."
b0 L"
b0 !#
b0 -#
b0 2
b0 K"
b0 U"
b0 6
b0 %"
b0 J"
0G
b0 ;
b0 I"
b0 W"
b0 R
b0 E"
b0 X"
0K
0&
b0 U
b0 4"
b0 r"
b1 ,
b1 5"
b1 ^"
b1 "#
b1000 o
b1000 $"
b1000 *"
b1000 2"
b1000 ]"
b1000 q"
b10 *
b10 b"
b10 6#
b1000000000000 n
b1000000000000 `"
b1000000000000 c"
0C
1%
b10000 1
b10000 8"
b10000 S"
b1100 4
b1100 9"
b1100 R"
b0 M
b0 7"
b0 Q"
b0 i"
b0 z"
b0 ~"
#48
b10000 5
b10000 h"
b10000 0#
0#
b1000000000000011110010011 L
b1000000000000011110010011 N"
0$
08
#49
b0 J
b0 1"
b0 V"
b0 p
b0 z
b0 {
b0 T"
#50
b0 -
b0 !"
b0 f"
0!
#55
1!
#57
b1000 )
b1000 #"
b1000 )"
b1000 e"
b1000 w"
b1000 7#
b1100 ^
b1100 u
b1100 '"
b10 X
b10 ("
b10 \"
b10 Y
b10 ""
b10 ["
b10000 J
b10000 1"
b10000 V"
b10011 j"
b10011 &#
b10000 ##
b1111 %#
b10000 .
b10000 ,#
b10000 5#
b1 *
b1 b"
b1 6#
b1000 n
b1000 `"
b1000 c"
b0 ,
b0 5"
b0 ^"
b0 "#
b0 o
b0 $"
b0 *"
b0 2"
b0 ]"
b0 q"
0'
b10000 2
b10000 K"
b10000 U"
b1100 6
b1100 %"
b1100 J"
1G
b10 ;
b10 I"
b10 W"
b10 R
b10 E"
b10 X"
1K
1&
b10000 7
b10000 P"
b10000 )#
b10000 1#
b10000 2#
b1000000000000011110010011 M
b1000000000000011110010011 7"
b1000000000000011110010011 Q"
b1000000000000011110010011 i"
b1000000000000011110010011 z"
b1000000000000011110010011 ~"
#58
b101000000000011100010011 N
b101000000000011100010011 *#
b0 <
b0 :"
b0 '#
1#
b0 L
b0 N"
b0 5
b0 h"
b0 0#
0I
b0 f
b0 p"
b0 }"
0H
b0 Q
b0 o"
b0 y"
1$
18
b10100 3
b10100 O"
b10100 g"
b10100 3#
#59
b1100 p
b1100 z
b1100 {
b1100 T"
b10000 P
b10000 ="
b10000 {"
#60
b1100 5
b1100 h"
b1100 0#
b1100 -
b1100 !"
b1100 f"
0!
#65
1!
#67
b0 X
b0 ("
b0 \"
b0 Y
b0 ""
b0 ["
b1100 J
b1100 1"
b1100 V"
b0 ^
b0 u
b0 '"
b0 )
b0 #"
b0 )"
b0 e"
b0 w"
b0 7#
b0 j"
b0 &#
b0 ##
b0 %#
b0 .
b0 ,#
b0 5#
b1100 7
b1100 P"
b1100 )#
b1100 1#
b1100 2#
b0 2
b0 K"
b0 U"
b0 6
b0 %"
b0 J"
0G
b0 ;
b0 I"
b0 W"
b0 R
b0 E"
b0 X"
0K
0&
b10000 o
b10000 $"
b10000 *"
b10000 2"
b10000 ]"
b10000 q"
1'
b0 *
b0 b"
b0 6#
b0 n
b0 `"
b0 c"
0%
b10100 1
b10100 8"
b10100 S"
b10000 4
b10000 9"
b10000 R"
b0 M
b0 7"
b0 Q"
b0 i"
b0 z"
b0 ~"
#68
b1000000000000011110010011 N
b1000000000000011110010011 *#
0#
b1000000000000011110010011 L
b1000000000000011110010011 N"
b10000 5
b10000 h"
b10000 0#
0$
08
b10000 3
b10000 O"
b10000 g"
b10000 3#
#69
b0 J
b0 1"
b0 V"
b0 p
b0 z
b0 {
b0 T"
b0 P
b0 ="
b0 {"
#70
b0 -
b0 !"
b0 f"
0!
#75
1!
#77
b10000 )
b10000 #"
b10000 )"
b10000 e"
b10000 w"
b10000 7#
b10 X
b10 ("
b10 \"
b10011 j"
b10011 &#
b10000 ##
b1111 %#
b10000 .
b10000 ,#
b10000 5#
b10000 n
b10000 `"
b10000 c"
1%
b0 o
b0 $"
b0 *"
b0 2"
b0 ]"
b0 q"
0'
b10100 2
b10100 K"
b10100 U"
b10000 6
b10000 %"
b10000 J"
b10 R
b10 E"
b10 X"
1&
b10000 7
b10000 P"
b10000 )#
b10000 1#
b10000 2#
b10000 1
b10000 8"
b10000 S"
b1100 4
b1100 9"
b1100 R"
b1000000000000011110010011 M
b1000000000000011110010011 7"
b1000000000000011110010011 Q"
b1000000000000011110010011 i"
b1000000000000011110010011 z"
b1000000000000011110010011 ~"
#78
b101000000000011100010011 L
b101000000000011100010011 N"
b101000000000011100010011 N
b101000000000011100010011 *#
b10100 5
b10100 h"
b10100 0#
b10100 3
b10100 O"
b10100 g"
b10100 3#
#79
b10000 P
b10000 ="
b10000 {"
#80
0!
#85
1!
#87
b10000 ]
b10000 t
b10000 -"
b0 )
b0 #"
b0 )"
b0 e"
b0 w"
b0 7#
b1010 ##
b1110 %#
b1010 .
b1010 ,#
b1010 5#
b10100 7
b10100 P"
b10100 )#
b10100 1#
b10100 2#
b10000 O
b10000 +"
b10000 F"
b1111 +
b1111 ."
b1111 L"
b1111 !#
b1111 -#
b10000 2
b10000 K"
b10000 U"
b1100 6
b1100 %"
b1100 J"
1'
b0 n
b0 `"
b0 c"
0%
b10100 1
b10100 8"
b10100 S"
b10000 4
b10000 9"
b10000 R"
b101000000000011100010011 M
b101000000000011100010011 7"
b101000000000011100010011 Q"
b101000000000011100010011 i"
b101000000000011100010011 z"
b101000000000011100010011 ~"
#88
b111001111010000000100011 L
b111001111010000000100011 N"
b111001111010000000100011 N
b111001111010000000100011 *#
b11000 5
b11000 h"
b11000 0#
b11000 3
b11000 O"
b11000 g"
b11000 3#
#89
b10000 J
b10000 1"
b10000 V"
b10000 p
b10000 z
b10000 {
b10000 T"
b1010 P
b1010 ="
b1010 {"
#90
b10000 -
b10000 !"
b10000 f"
0!
#95
1!
#97
b1010 ]
b1010 t
b1010 -"
b100011 j"
b10 l"
b100011 &#
b1111 $#
b1110 ##
b0 %#
b1110 .
b1110 ,#
b1110 5#
b1111 /
b1111 +#
b1111 4#
1%
b1111 ,
b1111 5"
b1111 ^"
b1111 "#
b10000 o
b10000 $"
b10000 *"
b10000 2"
b10000 ]"
b10000 q"
b1010 O
b1010 +"
b1010 F"
b1110 +
b1110 ."
b1110 L"
b1110 !#
b1110 -#
b10100 2
b10100 K"
b10100 U"
b10000 6
b10000 %"
b10000 J"
b11000 7
b11000 P"
b11000 )#
b11000 1#
b11000 2#
b11000 1
b11000 8"
b11000 S"
b10100 4
b10100 9"
b10100 R"
b111001111010000000100011 M
b111001111010000000100011 7"
b111001111010000000100011 Q"
b111001111010000000100011 i"
b111001111010000000100011 z"
b111001111010000000100011 ~"
#98
b1010000000000011100010011 L
b1010000000000011100010011 N"
b1010000000000011100010011 N
b1010000000000011100010011 *#
1\
b11100 5
b11100 h"
b11100 0#
1?
1F
0(
b1 Q
b1 o"
b1 y"
b11100 3
b11100 O"
b11100 g"
b11100 3#
#99
b1010 J
b1010 1"
b1010 V"
b1010 p
b1010 z
b1010 {
b1010 T"
b0 P
b0 ="
b0 {"
#100
b1010 -
b1010 !"
b1010 f"
0!
#105
1!
