RISC_V/CPU/cpu_mem_loader.vcd
$date
	Wed Mar 11 19:13:04 2026
$end
$version
	Icarus Verilog
$end
$timescale
	100ps
$end
$scope module CPU_tb_mem_loader $end
$var reg 1 ! CLK $end
$var reg 1 " RESET $end
$var integer 32 # i [31:0] $end
$scope module main $end
$var wire 1 $ BUBBLE_FOR_ID_EX $end
$var wire 1 ! CLK $end
$var wire 1 % FLUSH_TRIGGER $end
$var wire 2 & Load_Use_Hazard_RS1 [1:0] $end
$var wire 2 ' Load_Use_Hazard_RS2 [1:0] $end
$var wire 1 " RESET $end
$var wire 1 ( mem_ready $end
$var wire 1 ) push_grad_combined $end
$var wire 1 * push_spike_combined $end
$var wire 2 + writeback_select [1:0] $end
$var wire 32 , spike_stream_word [31:0] $end
$var wire 1 - spike_stream_valid $end
$var wire 1 . serial_out_spike_status $end
$var wire 1 / serial_out_grad $end
$var wire 1 0 mem_write_muxed $end
$var wire 1 1 mem_read_muxed $end
$var wire 1 2 mem_loader_read $end
$var wire 1 3 mem_loader_push_spike $end
$var wire 1 4 mem_loader_push_grad $end
$var wire 1 5 mem_loader_done $end
$var wire 32 6 mem_loader_data_spike [31:0] $end
$var wire 16 7 mem_loader_data_grad [15:0] $end
$var wire 1 8 mem_loader_busy $end
$var wire 32 9 mem_loader_addr [31:0] $end
$var wire 32 : mem_addr_muxed [31:0] $end
$var wire 16 ; grad_stream_value [15:0] $end
$var wire 1 < grad_stream_valid $end
$var wire 32 = data_spike_combined [31:0] $end
$var wire 16 > data_grad_combined [15:0] $end
$var wire 1 ? busy_spike $end
$var wire 1 @ busy_grad $end
$var wire 1 A WRITEENABLE_MEMOUT $end
$var wire 1 B WRITEENABLE_IDOUT $end
$var wire 1 C WRITEENABLE_EXOUT $end
$var wire 1 D WRITEENABLE $end
$var wire 32 E WRITEDATA [31:0] $end
$var wire 5 F WRITEADDRESS_MEMOUT [4:0] $end
$var wire 5 G WRITEADDRESS_IDOUT [4:0] $end
$var wire 5 H WRITEADDRESS_EXOUT [4:0] $end
$var wire 32 I UPDATED_WEIGHT_MEMOUT [31:0] $end
$var wire 32 J UPDATED_WEIGHT_EXOUT [31:0] $end
$var wire 32 K UPDATED_WEIGHT [31:0] $end
$var wire 32 L TARGETEDADDRESS [31:0] $end
$var wire 5 M RS2 [4:0] $end
$var wire 5 N RS1 [4:0] $end
$var wire 32 O READDATA_MEMOUT [31:0] $end
$var wire 1 P PUSH $end
$var wire 1 Q POP $end
$var wire 32 R PC_PLUS_4_OUT [31:0] $end
$var wire 32 S PC_PLUS_4_IDOUT [31:0] $end
$var wire 32 T PC_PLUS_4 [31:0] $end
$var wire 32 U PC_OUT [31:0] $end
$var wire 32 V PC_MUX_OUT [31:0] $end
$var wire 32 W PC_IDOUT [31:0] $end
$var wire 32 X PCOUT [31:0] $end
$var wire 1 Y PCADDRESSCONTROLLER $end
$var wire 2 Z Out_Load_Use_Hazard_RS2 [1:0] $end
$var wire 2 [ Out_Load_Use_Hazard_RS1 [1:0] $end
$var wire 2 \ OFFSETGENARATOR_IDOUT [1:0] $end
$var wire 2 ] OFFSETGENARATOR [1:0] $end
$var wire 1 ^ MEM_TO_LIFO_TARGET $end
$var wire 1 _ MEM_TO_LIFO_START $end
$var wire 1 ` MEMWRITE_IDOUT $end
$var wire 1 a MEMWRITE_EXOUT $end
$var wire 1 b MEMWRITE $end
$var wire 1 c MEMREAD_IDOUT $end
$var wire 1 d MEMREAD_EXOUT $end
$var wire 1 e MEMREAD $end
$var wire 1 f MEMORYACCESS_MEMOUT $end
$var wire 1 g MEMORYACCESS_IDOUT $end
$var wire 1 h MEMORYACCESS_EXOUT $end
$var wire 1 i MEMORYACCESS $end
$var wire 1 j LOAD_NEW_WEIGHT_IDOUT $end
$var wire 1 k LOAD_NEW_WEIGHT $end
$var wire 1 l JUMP_IDOUT $end
$var wire 1 m JUMPANDLINK $end
$var wire 1 n JUMP $end
$var wire 32 o JAL_MUX_OUT [31:0] $end
$var wire 1 p JAL_IDOUT $end
$var wire 32 q INSTRUCTION_WITH_FLUSH [31:0] $end
$var wire 32 r INSTRUCTION_OUT [31:0] $end
$var wire 32 s INSTRUCTION [31:0] $end
$var wire 32 t IMMEDIATE_VALUE_IDOUT [31:0] $end
$var wire 32 u IMMEDIATE_VALUE [31:0] $end
$var wire 3 v IMMEDIATE_TYPE [2:0] $end
$var wire 2 w IMMEDIATESELECT_IDOUT [1:0] $end
$var wire 2 x IMMEDIATESELECT [1:0] $end
$var wire 3 y FUNCT3_IDOUT [2:0] $end
$var wire 3 z FUNCT3_EXOUT [2:0] $end
$var wire 2 { FRWD_RS2_WB [1:0] $end
$var wire 2 | FRWD_RS1_WB [1:0] $end
$var wire 2 } FORWARD_RS2 [1:0] $end
$var wire 2 ~ FORWARD_RS1 [1:0] $end
$var wire 1 !" FORWARD_MEMORY_IDOUT $end
$var wire 1 "" FORWARD_MEMORY_EXOUT $end
$var wire 1 #" FORWARD_MEMORY $end
$var wire 32 $" Data2_MUX_OUT [31:0] $end
$var wire 32 %" Data1_MUX_OUT [31:0] $end
$var wire 32 &" DATA_OUT [31:0] $end
$var wire 32 '" DATA2_IDOUT [31:0] $end
$var wire 32 (" DATA2_FORWARD [31:0] $end
$var wire 32 )" DATA2_EXOUT [31:0] $end
$var wire 32 *" DATA2 [31:0] $end
$var wire 32 +" DATA1_IDOUT [31:0] $end
$var wire 32 ," DATA1 [31:0] $end
$var wire 2 -" ControlUnitOFFSETGENARATOR [1:0] $end
$var wire 2 ." ControlUnitIMMEDIATESELECT [1:0] $end
$var wire 1 /" CUSTOM_WRITEBACK_MEMOUT $end
$var wire 1 0" CUSTOM_WRITEBACK_IDOUT $end
$var wire 1 1" CUSTOM_WRITEBACK_EXOUT $end
$var wire 1 2" CUSTOM_WRITEBACK $end
$var wire 1 3" CUSTOM_ENABLE_IDOUT $end
$var wire 1 4" CUSTOM_ENABLE $end
$var wire 2 5" Branch_Forward_RS2_ID [1:0] $end
$var wire 2 6" Branch_Forward_RS2_EXOUT [1:0] $end
$var wire 2 7" Branch_Forward_RS1_ID [1:0] $end
$var wire 2 8" Branch_Forward_RS1_EXOUT [1:0] $end
$var wire 1 9" BUSYWAIT $end
$var wire 1 :" BUBBLE $end
$var wire 1 ;" BRANCH_IDOUT $end
$var wire 32 <" BRANCH_DATA2 [31:0] $end
$var wire 32 =" BRANCH_DATA1 [31:0] $end
$var wire 1 >" BRANCH $end
$var wire 5 ?" ALU_OPCODE_IDOUT [4:0] $end
$var wire 5 @" ALU_OPCODE [4:0] $end
$var wire 32 A" ALURESULT_MEMOUT [31:0] $end
$var wire 32 B" ALURESULT_EXOUT [31:0] $end
$var wire 32 C" ALURESULT [31:0] $end
$scope module ALU $end
$var wire 64 D" mulhu_result [63:0] $end
$var wire 64 E" mulhsu_result [63:0] $end
$var wire 64 F" mulh_result [63:0] $end
$var wire 32 G" data2 [31:0] $end
$var wire 32 H" data1 [31:0] $end
$var wire 32 I" MULH_result [31:0] $end
$var wire 32 J" MULHU_result [31:0] $end
$var wire 32 K" MULHSU_result [31:0] $end
$var wire 5 L" ALU_OPCODE [4:0] $end
$var reg 32 M" Output [31:0] $end
$upscope $end
$scope module BranchController1 $end
$var wire 32 N" ALUresult [31:0] $end
$var wire 3 O" func3 [2:0] $end
$var wire 32 P" data2 [31:0] $end
$var wire 32 Q" data1 [31:0] $end
$var wire 1 l Jump $end
$var wire 1 ;" Branch $end
$var reg 1 Y PCAddressController $end
$var reg 32 R" TargetedAddress [31:0] $end
$upscope $end
$scope module Branch_Data1_MUX $end
$var wire 2 S" SELECT [1:0] $end
$var wire 32 T" INPUT_3 [31:0] $end
$var wire 32 U" INPUT_2 [31:0] $end
$var wire 32 V" INPUT_1 [31:0] $end
$var wire 32 W" INPUT_0 [31:0] $end
$var reg 32 X" OUTPUT [31:0] $end
$upscope $end
$scope module Branch_Data2_MUX $end
$var wire 2 Y" SELECT [1:0] $end
$var wire 32 Z" INPUT_3 [31:0] $end
$var wire 32 [" INPUT_2 [31:0] $end
$var wire 32 \" INPUT_1 [31:0] $end
$var wire 32 ]" INPUT_0 [31:0] $end
$var reg 32 ^" OUTPUT [31:0] $end
$upscope $end
$scope module Data1_MUX $end
$var wire 2 _" SELECT [1:0] $end
$var wire 32 `" INPUT_3 [31:0] $end
$var wire 32 a" INPUT_2 [31:0] $end
$var wire 32 b" INPUT_1 [31:0] $end
$var wire 32 c" INPUT_0 [31:0] $end
$var reg 32 d" OUTPUT [31:0] $end
$upscope $end
$scope module Data2_MUX $end
$var wire 2 e" SELECT [1:0] $end
$var wire 32 f" INPUT_3 [31:0] $end
$var wire 32 g" INPUT_2 [31:0] $end
$var wire 32 h" INPUT_1 [31:0] $end
$var wire 32 i" INPUT_0 [31:0] $end
$var reg 32 j" OUTPUT [31:0] $end
$upscope $end
$scope module EX_MEM_pipeline1 $end
$var wire 1 ! CLK $end
$var wire 1 " RESET $end
$var wire 1 B WRITE_ENABLE $end
$var wire 5 k" WRITE_ADDRESS [4:0] $end
$var wire 32 l" UPDATED_WEIGHT [31:0] $end
$var wire 1 ` MEM_WRITE $end
$var wire 1 c MEM_READ $end
$var wire 1 g MEM_ACCESS $end
$var wire 3 m" FUNCT3 [2:0] $end
$var wire 1 !" FORWARD_MEMORY $end
$var wire 32 n" DATA2 [31:0] $end
$var wire 1 0" CUSTOM_WRITEBACK $end
$var wire 32 o" ALU_OUTPUT [31:0] $end
$var reg 32 p" ALU_OUTPUT_OUT [31:0] $end
$var reg 1 1" CUSTOM_WRITEBACK_OUT $end
$var reg 32 q" DATA2_OUT [31:0] $end
$var reg 3 r" FUNCT3_OUT [2:0] $end
$var reg 1 h MEM_ACCESS_OUT $end
$var reg 1 d MEM_READ_OUT $end
$var reg 1 a MEM_WRITE_OUT $end
$var reg 1 "" OUT_FORWARD_MEMORY $end
$var reg 32 s" UPDATED_WEIGHT_OUT [31:0] $end
$var reg 5 t" WRITE_ADDRESS_OUT [4:0] $end
$var reg 1 C WRITE_ENABLE_OUT $end
$upscope $end
$scope module ID_EXPipeline1 $end
$var wire 1 $ BUBBLE $end
$var wire 1 ! CLK $end
$var wire 2 u" Load_Use_Hazard_RS1 [1:0] $end
$var wire 2 v" Load_Use_Hazard_RS2 [1:0] $end
$var wire 1 " Reset $end
$var wire 1 w" STALL $end
$var wire 32 x" instruction [31:0] $end
$var wire 1 D Write_Enable $end
$var wire 32 y" PC_next [31:0] $end
$var wire 32 z" PC [31:0] $end
$var wire 2 {" Offset_Generate [1:0] $end
$var wire 1 i Memory_Access $end
$var wire 1 b Mem_Write $end
$var wire 1 e Mem_Read $end
$var wire 1 k Load_New_Weight $end
$var wire 1 m Jump_and_Link $end
$var wire 1 n Jump $end
$var wire 32 |" Immediate_value [31:0] $end
$var wire 2 }" Immediate_Select [1:0] $end
$var wire 1 #" FORWARD_MEMORY $end
$var wire 32 ~" Data2 [31:0] $end
$var wire 32 !# Data1 [31:0] $end
$var wire 1 2" Custom_Writeback $end
$var wire 1 4" Custom_Enable $end
$var wire 2 "# Branch_Forward_RS2 [1:0] $end
$var wire 2 ## Branch_Forward_RS1 [1:0] $end
$var wire 1 >" Branch $end
$var wire 5 $# ALU_Opcode [4:0] $end
$var reg 1 !" OUT_FORWARD_MEMORY $end
$var reg 5 %# Out_ALU_Opcode [4:0] $end
$var reg 1 ;" Out_Branch $end
$var reg 2 &# Out_Branch_Forward_RS1 [1:0] $end
$var reg 2 '# Out_Branch_Forward_RS2 [1:0] $end
$var reg 1 3" Out_Custom_Enable $end
$var reg 1 0" Out_Custom_Writeback $end
$var reg 32 (# Out_Data1 [31:0] $end
$var reg 32 )# Out_Data2 [31:0] $end
$var reg 2 *# Out_Immediate_Select [1:0] $end
$var reg 32 +# Out_Immediate_value [31:0] $end
$var reg 1 l Out_Jump $end
$var reg 1 p Out_Jump_and_Link $end
$var reg 1 j Out_Load_New_Weight $end
$var reg 2 ,# Out_Load_Use_Hazard_RS1 [1:0] $end
$var reg 2 -# Out_Load_Use_Hazard_RS2 [1:0] $end
$var reg 1 c Out_Mem_Read $end
$var reg 1 ` Out_Mem_Write $end
$var reg 1 g Out_Memory_Access $end
$var reg 2 .# Out_Offset_Generate [1:0] $end
$var reg 32 /# Out_PC [31:0] $end
$var reg 32 0# Out_PC_next [31:0] $end
$var reg 5 1# Out_WriteAddress [4:0] $end
$var reg 1 B Out_Write_Enable $end
$var reg 3 2# Out_func3 [2:0] $end
$upscope $end
$scope module ID_IF_register1 $end
$var wire 1 ! CLK $end
$var wire 32 3# INSTRUCTION [31:0] $end
$var wire 1 " RESET $end
$var wire 32 4# PC_PLUS_4 [31:0] $end
$var wire 32 5# PC [31:0] $end
$var wire 1 :" BUBBLE $end
$var reg 32 6# INSTRUCTION_OUT [31:0] $end
$var reg 32 7# PC_OUT [31:0] $end
$var reg 32 8# PC_PLUS_4_OUT [31:0] $end
$upscope $end
$scope module JAL_MUX $end
$var wire 32 9# INPUT_0 [31:0] $end
$var wire 32 :# INPUT_1 [31:0] $end
$var wire 1 p SELECT $end
$var reg 32 ;# OUTPUT [31:0] $end
$upscope $end
$scope module LIFO_Buffer_grad_value $end
$var wire 1 ! clk $end
$var wire 16 <# data_in [15:0] $end
$var wire 1 ) push $end
$var wire 1 " rst $end
$var wire 1 Q pop_trigger $end
$var parameter 32 =# DATA_WIDTH $end
$var parameter 32 ># DEPTH $end
$var parameter 32 ?# SERIALIZE_BITS $end
$var reg 6 @# bit_count [5:0] $end
$var reg 1 @ busy $end
$var reg 16 A# data_out [15:0] $end
$var reg 1 < data_valid $end
$var reg 5 B# read_ptr [4:0] $end
$var reg 1 / serial_out $end
$var reg 16 C# shift_reg [15:0] $end
$var reg 5 D# stack_ptr [4:0] $end
$var reg 5 E# stream_count [4:0] $end
$upscope $end
$scope module LIFO_Buffer_spike_status $end
$var wire 1 ! clk $end
$var wire 32 F# data_in [31:0] $end
$var wire 1 * push $end
$var wire 1 " rst $end
$var wire 1 Q pop_trigger $end
$var parameter 32 G# DATA_WIDTH $end
$var parameter 32 H# DEPTH $end
$var parameter 32 I# SERIALIZE_BITS $end
$var reg 6 J# bit_count [5:0] $end
$var reg 1 ? busy $end
$var reg 32 K# data_out [31:0] $end
$var reg 1 - data_valid $end
$var reg 5 L# read_ptr [4:0] $end
$var reg 1 . serial_out $end
$var reg 32 M# shift_reg [31:0] $end
$var reg 5 N# stack_ptr [4:0] $end
$var reg 5 O# stream_count [4:0] $end
$upscope $end
$scope module LoadUseComparator1 $end
$var wire 2 P# FORWARD_RS1 [1:0] $end
$var wire 2 Q# FORWARD_RS2 [1:0] $end
$var wire 2 R# LOAD_USE_RS1 [1:0] $end
$var wire 2 S# LOAD_USE_RS2 [1:0] $end
$var reg 2 T# CORRECT_FORWARD_RS1 [1:0] $end
$var reg 2 U# CORRECT_FORWARD_RS2 [1:0] $end
$upscope $end
$scope module MEM_WBPipeline1 $end
$var wire 32 V# ALU_Output [31:0] $end
$var wire 1 ! CLK $end
$var wire 1 1" Custom_Writeback $end
$var wire 1 h Memory_access $end
$var wire 1 " Reset $end
$var wire 32 W# Updated_Weight [31:0] $end
$var wire 5 X# Write_Address [4:0] $end
$var wire 1 C Write_enable $end
$var wire 32 Y# Memory_Data [31:0] $end
$var reg 32 Z# ALU_Output_Out [31:0] $end
$var reg 1 /" Custom_Writeback_Out $end
$var reg 32 [# Memory_Data_Out [31:0] $end
$var reg 1 f Memory_access_Out $end
$var reg 32 \# Updated_Weight_Out [31:0] $end
$var reg 5 ]# Write_Address_out [4:0] $end
$var reg 1 A Write_Enable_Out $end
$upscope $end
$scope module Memory_access_MUX $end
$var wire 32 ^# INPUT_0 [31:0] $end
$var wire 32 _# INPUT_1 [31:0] $end
$var wire 32 `# INPUT_2 [31:0] $end
$var wire 32 a# INPUT_3 [31:0] $end
$var wire 2 b# SELECT [1:0] $end
$var reg 32 c# OUTPUT [31:0] $end
$upscope $end
$scope module PC_MUX $end
$var wire 32 d# INPUT_1 [31:0] $end
$var wire 1 Y SELECT $end
$var wire 32 e# INPUT_0 [31:0] $end
$var reg 32 f# OUTPUT [31:0] $end
$upscope $end
$scope module controlunit1 $end
$var wire 32 g# INSTRUCTION [31:0] $end
$var wire 7 h# OPCODE [6:0] $end
$var wire 7 i# FUNCT7 [6:0] $end
$var wire 3 j# FUNCT3 [2:0] $end
$var reg 5 k# ALU_OPCODE [4:0] $end
$var reg 1 >" BRANCH $end
$var reg 1 4" CUSTOM_ENABLE $end
$var reg 1 2" CUSTOM_WRITEBACK $end
$var reg 2 l# IMMEDIATE_SELECT [1:0] $end
$var reg 3 m# IMMEDIATE_TYPE [2:0] $end
$var reg 1 n JUMP $end
$var reg 1 m JUMP_AND_LINK $end
$var reg 1 k LOAD_NEW_WEIGHT $end
$var reg 1 i MEMORY_ACCESS $end
$var reg 1 e MEM_READ $end
$var reg 1 _ MEM_TO_LIFO_START $end
$var reg 1 ^ MEM_TO_LIFO_TARGET $end
$var reg 1 b MEM_WRITE $end
$var reg 2 n# OFFSET_GENARATOR [1:0] $end
$var reg 1 Q POP $end
$var reg 1 P PUSH $end
$var reg 1 D WRITE_ENABLE $end
$upscope $end
$scope module custom_unit $end
$var wire 1 ! clk $end
$var wire 1 3" enable $end
$var wire 16 o# error_term_in [15:0] $end
$var wire 1 < grad_valid $end
$var wire 16 p# gradient_val [15:0] $end
$var wire 1 j load_new_weight $end
$var wire 1 q# rst_n $end
$var wire 1 . spike_status $end
$var wire 32 r# weight [31:0] $end
$var wire 64 s# lr_mul [63:0] $end
$var wire 32 t# lr_delta [31:0] $end
$var wire 32 u# delta_out [31:0] $end
$var parameter 16 v# LR $end
$var reg 32 w# Updated_weight [31:0] $end
$var reg 1 x# apply_update_d $end
$var reg 1 y# enable_latched $end
$var reg 16 z# error_term_latched [15:0] $end
$scope function sat16_to_32 $end
$var reg 64 {# value [63:0] $end
$upscope $end
$scope module backprop_unit $end
$var wire 1 ! clk $end
$var wire 1 y# enable $end
$var wire 16 |# error_term [15:0] $end
$var wire 1 < grad_valid $end
$var wire 16 }# gradient_val [15:0] $end
$var wire 1 q# rst_n $end
$var wire 1 . spike_status $end
$var wire 32 ~# temporal_term [31:0] $end
$var wire 64 !$ grad_mul [63:0] $end
$var wire 32 "$ grad_fixed [31:0] $end
$var wire 32 #$ error_fixed [31:0] $end
$var wire 32 $$ effective_error [31:0] $end
$var wire 32 %$ dm_next_calc [31:0] $end
$var wire 32 &$ delta_spike_gated [31:0] $end
$var wire 32 '$ delta_calc [31:0] $end
$var wire 64 ($ beta_mul [63:0] $end
$var parameter 16 )$ BETA $end
$var reg 32 *$ delta_out [31:0] $end
$var reg 32 +$ dm_prev [31:0] $end
$upscope $end
$upscope $end
$scope module datamemory1 $end
$var wire 32 ,$ ADDRESS [31:0] $end
$var wire 1 ! CLK $end
$var wire 3 -$ FUNCT3 [2:0] $end
$var wire 1 1 READ $end
$var wire 1 " RESET $end
$var wire 1 0 WRITE $end
$var wire 32 .$ WRITEDATA [31:0] $end
$var reg 1 9" BUSYWAIT $end
$var reg 32 /$ READDATA [31:0] $end
$var integer 32 0$ i [31:0] $end
$upscope $end
$scope module datamemory_MUX $end
$var wire 32 1$ INPUT_0 [31:0] $end
$var wire 32 2$ INPUT_1 [31:0] $end
$var wire 32 3$ INPUT_2 [31:0] $end
$var wire 32 4$ INPUT_3 [31:0] $end
$var wire 2 5$ SELECT [1:0] $end
$var reg 32 6$ OUTPUT [31:0] $end
$upscope $end
$scope module imidiateGenarator1 $end
$var wire 3 7$ IMMEDIATE_TYPE [2:0] $end
$var wire 32 8$ INSTRUCTION [31:0] $end
$var reg 32 9$ IMMEDIATE_VALUE [31:0] $end
$upscope $end
$scope module immForwarding $end
$var wire 2 :$ ControlUnit_IMMEDIATE_SELECT [1:0] $end
$var wire 2 ;$ ControlUnit_OFFSET_GENARATOR [1:0] $end
$var wire 32 <$ INSTRUCTION [31:0] $end
$var wire 5 =$ RD_imm_old [4:0] $end
$var wire 5 >$ RD_old_old [4:0] $end
$var wire 1 B RegWrite_imm_old $end
$var wire 1 C RegWrite_old_old $end
$var wire 5 ?$ SR2 [4:0] $end
$var wire 5 @$ SR1 [4:0] $end
$var wire 5 A$ RD [4:0] $end
$var wire 7 B$ OPCODE [6:0] $end
$var reg 2 C$ Branch_Forward_RS1 [1:0] $end
$var reg 2 D$ Branch_Forward_RS2 [1:0] $end
$var reg 2 E$ Data1_OffsetGenarator [1:0] $end
$var reg 2 F$ Data2_ImmediateSelect [1:0] $end
$var reg 2 G$ fwd1 [1:0] $end
$var reg 2 H$ fwd2 [1:0] $end
$upscope $end
$scope module instructionmem1 $end
$var wire 1 " RESET $end
$var wire 32 I$ PC [31:0] $end
$var reg 32 J$ INSTRUCTION [31:0] $end
$upscope $end
$scope module load_use_hazard1 $end
$var wire 1 c EX_MEMREAD $end
$var wire 1 d MEMREAD_EXOUT $end
$var wire 1 b MEM_WRITE $end
$var wire 5 K$ RS1 [4:0] $end
$var wire 5 L$ RS2 [4:0] $end
$var wire 5 M$ WRITEADDRESS_EXOUT [4:0] $end
$var wire 5 N$ WRITEADDRESS_IDOUT [4:0] $end
$var reg 1 :" BUBBLE $end
$var reg 1 #" FORWARD_MEMORY $end
$var reg 2 O$ FRWD_RS1_WB [1:0] $end
$var reg 2 P$ FRWD_RS2_WB [1:0] $end
$upscope $end
$scope module mem_lifo_loader $end
$var wire 1 ! clk $end
$var wire 5 Q$ count [4:0] $end
$var wire 32 R$ mem_data [31:0] $end
$var wire 1 ( mem_ready $end
$var wire 1 S$ rst_n $end
$var wire 1 _ start $end
$var wire 1 ^ target_sel $end
$var wire 32 T$ base_addr [31:0] $end
$var parameter 3 U$ CAPTURE $end
$var parameter 3 V$ COMPLETE $end
$var parameter 3 W$ IDLE $end
$var parameter 3 X$ PUSH_DATA $end
$var parameter 3 Y$ REQ_READ $end
$var reg 1 8 busy $end
$var reg 32 Z$ captured_data [31:0] $end
$var reg 5 [$ counter [4:0] $end
$var reg 32 \$ current_addr [31:0] $end
$var reg 1 5 done $end
$var reg 16 ]$ lifo_data_grad [15:0] $end
$var reg 32 ^$ lifo_data_spike [31:0] $end
$var reg 1 4 lifo_push_grad $end
$var reg 1 3 lifo_push_spike $end
$var reg 32 _$ mem_addr [31:0] $end
$var reg 1 2 mem_read $end
$var reg 3 `$ next_state [2:0] $end
$var reg 3 a$ state [2:0] $end
$var reg 1 b$ target_sel_latched $end
$upscope $end
$scope module pc1 $end
$var wire 1 :" BUBBLE $end
$var wire 1 ! CLK $end
$var wire 32 c$ PCIN [31:0] $end
$var wire 1 " RESET $end
$var reg 32 d$ PCOUT [31:0] $end
$upscope $end
$scope module pc_4_adder $end
$var wire 32 e$ PC [31:0] $end
$var wire 32 f$ PCPLUS4 [31:0] $end
$upscope $end
$scope module registerfile1 $end
$var wire 1 ! CLK $end
$var wire 1 " RESET $end
$var wire 5 g$ RS1 [4:0] $end
$var wire 5 h$ RS2 [4:0] $end
$var wire 5 i$ WRITEADDRESS [4:0] $end
$var wire 32 j$ WRITEDATA [31:0] $end
$var wire 1 A WRITEENABLE $end
$var reg 32 k$ DATA1 [31:0] $end
$var reg 32 l$ DATA2 [31:0] $end
$upscope $end
$upscope $end
$upscope $end
$enddefinitions $end
$comment Show the parameter values. $end
$dumpall
b1 Y$
b11 X$
b0 W$
b100 V$
b10 U$
b11110011 )$
b10010110 v#
b1 I#
b10000 H#
b100000 G#
b0 ?#
b10000 >#
b10000 =#
$end
#0
$dumpvars
bx l$
bx k$
bx j$
bx i$
bx h$
bx g$
bx f$
bx e$
bx d$
bx c$
0b$
b0 a$
b0 `$
b0 _$
b0 ^$
b0 ]$
b0 \$
b0 [$
b0 Z$
bx T$
0S$
bx R$
bx Q$
bx P$
bx O$
bx N$
bx M$
bx L$
bx K$
bx J$
bx I$
bx H$
bx G$
bx F$
bx E$
bx D$
bx C$
bx B$
bx A$
bx @$
bx ?$
bx >$
bx =$
bx <$
bx ;$
bx :$
bx 9$
bx 8$
bx 7$
b0 6$
bx 5$
b0 4$
bx 3$
b0 2$
bx 1$
b10000000000 0$
bx /$
b0 .$
bx -$
bx ,$
b0 +$
b0 *$
b0 ($
bx '$
bx &$
bx %$
b0 $$
b0 #$
bx "$
bx !$
b0 ~#
bx }#
b0 |#
bx {#
b0 z#
0y#
0x#
b0 w#
b0 u#
b0 t#
b0 s#
bx r#
0q#
bx p#
bx o#
bx n#
bx m#
bx l#
bx k#
bx j#
bx i#
bx h#
bx g#
bx f#
bx e#
bx d#
bx c#
bx b#
b0 a#
bx `#
bx _#
bx ^#
bx ]#
bx \#
bx [#
bx Z#
bx Y#
bx X#
bx W#
bx V#
bx U#
bx T#
bx S#
bx R#
bx Q#
bx P#
bx O#
bx N#
bx M#
bx L#
bx K#
bx J#
bx F#
bx E#
bx D#
bx C#
bx B#
bx A#
bx @#
bx <#
bx ;#
bx :#
bx 9#
bx 8#
bx 7#
bx 6#
bx 5#
bx 4#
bx 3#
bx 2#
bx 1#
bx 0#
bx /#
bx .#
bx -#
bx ,#
bx +#
bx *#
bx )#
bx (#
bx '#
bx &#
bx %#
bx $#
bx ##
bx "#
bx !#
bx ~"
bx }"
bx |"
bx {"
bx z"
bx y"
bx x"
zw"
bz v"
bz u"
bx t"
bx s"
bx r"
bx q"
bx p"
bx o"
bx n"
bx m"
b0 l"
bx k"
bx j"
bx i"
bx h"
bx g"
bx f"
bx e"
bx d"
bx c"
bx b"
bx a"
bx `"
bx _"
bx ^"
bx ]"
bx \"
bx ["
bx Z"
bx Y"
bx X"
bx W"
bx V"
bx U"
bx T"
bx S"
bx R"
bx Q"
bx P"
bx O"
bx N"
bx M"
bx L"
bx K"
bx J"
bx I"
bx H"
bx G"
bx F"
bx E"
bx D"
bx C"
bx B"
bx A"
bx @"
bx ?"
x>"
bx ="
bx <"
x;"
x:"
x9"
bx 8"
bx 7"
bx 6"
bx 5"
x4"
x3"
x2"
x1"
x0"
x/"
bx ."
bx -"
bx ,"
bx +"
bx *"
bx )"
b0 ("
bx '"
bx &"
bx %"
bx $"
x#"
x""
x!"
bx ~
bx }
bx |
bx {
bx z
bx y
bx x
bx w
bx v
bx u
bx t
bx s
bx r
bx q
xp
bx o
xn
xm
xl
xk
xj
xi
xh
xg
xf
xe
xd
xc
xb
xa
x`
x_
x^
bx ]
bx \
bx [
bx Z
xY
bx X
bx W
bx V
bx U
bx T
bx S
bx R
xQ
xP
bx O
bx N
bx M
bx L
b0 K
bx J
bx I
bx H
bx G
bx F
bx E
xD
xC
xB
xA
x@
x?
bx >
bx =
x<
bx ;
bx :
b0 9
08
b0 7
b0 6
05
04
03
02
x1
x0
x/
x.
x-
bx ,
bx +
x*
x)
x(
bz '
bz &
x%
x$
b1101110 #
1"
0!
$end
#10
b0 H$
b0 G$
b0 5"
b0 "#
b0 D$
b0 7"
b0 ##
b0 C$
b0 {
b0 P$
b0 |
b0 O$
0:"
0#"
b0 h#
b0 j#
b0 i#
b0 B$
b0 @$
b0 ?$
b0 A$
b0 M
b0 L$
b0 h$
b0 N
b0 K$
b0 g$
b0 q
b0 3#
b0 R
b0 y"
b0 8#
b0 U
b0 z"
b0 7#
b0 r
b0 x"
b0 6#
b0 g#
b0 8$
b0 <$
b0 s
b0 J$
#20
0)
0*
0$
02"
0^
0_
0k
04"
0Q
0P
0%
0Y
#30
b0 >
b0 <#
b0 Q$
b0 =
b0 F#
b0 *"
b0 ~"
b0 l$
b0 ,"
b0 !#
b0 T$
b0 k$
#50
b0 %$
b0 '$
b0 &$
b0 !$
0-
b0 ,
b0 K#
0?
0.
b0 J#
b0 M#
b0 L#
b0 O#
b0 N#
0<
b0 "$
b0 ;
b0 A#
b0 p#
b0 }#
0@
0/
b0 @#
b0 C#
b0 B#
b0 E#
b0 D#
1!
#70
b0 X
b0 5#
b0 I$
b0 d$
b0 e$
#80
b100 V
b100 f#
b100 c$
b100 T
b100 4#
b100 e#
b100 f$
#100
0!
#150
1S$
1q#
1!
0"
#160
b10110111 q
b10110111 3#
b10110111 s
b10110111 J$
#170
b0 o#
b0 <"
b0 P"
b0 ^"
b0 ="
b0 Q"
b0 X"
b0 o
b0 o"
b0 ;#
b0 %"
b0 H"
b0 d"
b110111 h#
b110111 B$
b1 A$
b0 J
b0 s"
b0 W#
00"
0j
03"
b0 6"
b0 Y"
b0 '#
b0 8"
b0 S"
b0 &#
bz Z
bz -#
bz S#
bz [
bz ,#
bz R#
0!"
b0 y
b0 O"
b0 m"
b0 2#
b0 G
b0 k"
b0 1#
b0 =$
b0 N$
b0 '"
b0 \"
b0 ]"
b0 i"
b0 n"
b0 )#
b0 +"
b0 V"
b0 W"
b0 c"
b0 (#
b0 r#
b0 S
b0 0#
b0 :#
b0 W
b0 b"
b0 /#
b100 X
b100 5#
b100 I$
b100 d$
b100 e$
b100 R
b100 y"
b100 8#
b10110111 r
b10110111 x"
b10110111 6#
b10110111 g#
b10110111 8$
b10110111 <$
#180
b10000000000001000000010010011 q
b10000000000001000000010010011 3#
b10000000000001000000010010011 s
b10000000000001000000010010011 J$
b10 x
b10 }"
b10 F$
b0 ]
b0 {"
b0 E$
b1000 V
b1000 f#
b1000 c$
b0 C"
b0 M"
b0 N"
b0 9#
b10001 @"
b10001 $#
b10001 k#
0n
0>"
b0 -"
b0 n#
b0 ;$
b10 ."
b10 l#
b10 :$
0m
0e
0b
0i
1D
b11 v
b11 m#
b11 7$
b1000 T
b1000 4#
b1000 e#
b1000 f$
#190
b0 L
b0 R"
b0 d#
b0 u
b0 |"
b0 9$
#200
0!
#250
1!
