RISC_V/CPU/cpu_4cases.vcd
$date
	Sun Mar 08 23:20:05 2026
$end
$version
	Icarus Verilog
$end
$timescale
	1ps
$end
$scope module CPU_tb_4cases $end
$var reg 1 ! CLK $end
$var reg 1 " RESET $end
$scope module main $end
$var wire 1 # BUBBLE_FOR_ID_EX $end
$var wire 1 ! CLK $end
$var wire 1 $ FLUSH_TRIGGER $end
$var wire 2 % Load_Use_Hazard_RS1 [1:0] $end
$var wire 2 & Load_Use_Hazard_RS2 [1:0] $end
$var wire 1 " RESET $end
$var wire 1 ' mem_ready $end
$var wire 1 ( push_grad_combined $end
$var wire 1 ) push_spike_combined $end
$var wire 32 * spike_stream_word [31:0] $end
$var wire 1 + spike_stream_valid $end
$var wire 1 , serial_out_spike_status $end
$var wire 1 - serial_out_grad $end
$var wire 1 . mem_write_muxed $end
$var wire 1 / mem_read_muxed $end
$var wire 1 0 mem_loader_read $end
$var wire 1 1 mem_loader_push_spike $end
$var wire 1 2 mem_loader_push_grad $end
$var wire 1 3 mem_loader_done $end
$var wire 32 4 mem_loader_data_spike [31:0] $end
$var wire 16 5 mem_loader_data_grad [15:0] $end
$var wire 1 6 mem_loader_busy $end
$var wire 32 7 mem_loader_addr [31:0] $end
$var wire 32 8 mem_addr_muxed [31:0] $end
$var wire 16 9 grad_stream_value [15:0] $end
$var wire 1 : grad_stream_valid $end
$var wire 32 ; data_spike_combined [31:0] $end
$var wire 16 < data_grad_combined [15:0] $end
$var wire 1 = busy_spike $end
$var wire 1 > busy_grad $end
$var wire 1 ? WRITEENABLE_MEMOUT $end
$var wire 1 @ WRITEENABLE_IDOUT $end
$var wire 1 A WRITEENABLE_EXOUT $end
$var wire 1 B WRITEENABLE $end
$var wire 32 C WRITEDATA [31:0] $end
$var wire 5 D WRITEADDRESS_MEMOUT [4:0] $end
$var wire 5 E WRITEADDRESS_IDOUT [4:0] $end
$var wire 5 F WRITEADDRESS_EXOUT [4:0] $end
$var wire 32 G UPDATED_WEIGHT [31:0] $end
$var wire 32 H TARGETEDADDRESS [31:0] $end
$var wire 5 I RS2 [4:0] $end
$var wire 5 J RS1 [4:0] $end
$var wire 32 K READDATA_MEMOUT [31:0] $end
$var wire 1 L PUSH $end
$var wire 1 M POP $end
$var wire 32 N PC_PLUS_4_OUT [31:0] $end
$var wire 32 O PC_PLUS_4_IDOUT [31:0] $end
$var wire 32 P PC_PLUS_4 [31:0] $end
$var wire 32 Q PC_OUT [31:0] $end
$var wire 32 R PC_MUX_OUT [31:0] $end
$var wire 32 S PC_IDOUT [31:0] $end
$var wire 32 T PCOUT [31:0] $end
$var wire 1 U PCADDRESSCONTROLLER $end
$var wire 2 V Out_Load_Use_Hazard_RS2 [1:0] $end
$var wire 2 W Out_Load_Use_Hazard_RS1 [1:0] $end
$var wire 2 X OFFSETGENARATOR_IDOUT [1:0] $end
$var wire 2 Y OFFSETGENARATOR [1:0] $end
$var wire 1 Z MEM_TO_LIFO_TARGET $end
$var wire 1 [ MEM_TO_LIFO_START $end
$var wire 1 \ MEMWRITE_IDOUT $end
$var wire 1 ] MEMWRITE_EXOUT $end
$var wire 1 ^ MEMWRITE $end
$var wire 1 _ MEMREAD_IDOUT $end
$var wire 1 ` MEMREAD_EXOUT $end
$var wire 1 a MEMREAD $end
$var wire 1 b MEMORYACCESS_MEMOUT $end
$var wire 1 c MEMORYACCESS_IDOUT $end
$var wire 1 d MEMORYACCESS_EXOUT $end
$var wire 1 e MEMORYACCESS $end
$var wire 1 f LOAD_NEW_WEIGHT_IDOUT $end
$var wire 1 g LOAD_NEW_WEIGHT $end
$var wire 1 h JUMP_IDOUT $end
$var wire 1 i JUMPANDLINK $end
$var wire 1 j JUMP $end
$var wire 32 k JAL_MUX_OUT [31:0] $end
$var wire 1 l JAL_IDOUT $end
$var wire 32 m INSTRUCTION_WITH_FLUSH [31:0] $end
$var wire 32 n INSTRUCTION_OUT [31:0] $end
$var wire 32 o INSTRUCTION [31:0] $end
$var wire 32 p IMMEDIATE_VALUE_IDOUT [31:0] $end
$var wire 32 q IMMEDIATE_VALUE [31:0] $end
$var wire 3 r IMMEDIATE_TYPE [2:0] $end
$var wire 2 s IMMEDIATESELECT_IDOUT [1:0] $end
$var wire 2 t IMMEDIATESELECT [1:0] $end
$var wire 3 u FUNCT3_IDOUT [2:0] $end
$var wire 3 v FUNCT3_EXOUT [2:0] $end
$var wire 2 w FRWD_RS2_WB [1:0] $end
$var wire 2 x FRWD_RS1_WB [1:0] $end
$var wire 2 y FORWARD_RS2 [1:0] $end
$var wire 2 z FORWARD_RS1 [1:0] $end
$var wire 1 { FORWARD_MEMORY_IDOUT $end
$var wire 1 | FORWARD_MEMORY_EXOUT $end
$var wire 1 } FORWARD_MEMORY $end
$var wire 32 ~ Data2_MUX_OUT [31:0] $end
$var wire 32 !" Data1_MUX_OUT [31:0] $end
$var wire 32 "" DATA_OUT [31:0] $end
$var wire 32 #" DATA2_IDOUT [31:0] $end
$var wire 32 $" DATA2_FORWARD [31:0] $end
$var wire 32 %" DATA2_EXOUT [31:0] $end
$var wire 32 &" DATA2 [31:0] $end
$var wire 32 '" DATA1_IDOUT [31:0] $end
$var wire 32 (" DATA1 [31:0] $end
$var wire 2 )" ControlUnitOFFSETGENARATOR [1:0] $end
$var wire 2 *" ControlUnitIMMEDIATESELECT [1:0] $end
$var wire 1 +" CUSTOM_ENABLE_IDOUT $end
$var wire 1 ," CUSTOM_ENABLE $end
$var wire 2 -" Branch_Forward_RS2_ID [1:0] $end
$var wire 2 ." Branch_Forward_RS2_EXOUT [1:0] $end
$var wire 2 /" Branch_Forward_RS1_ID [1:0] $end
$var wire 2 0" Branch_Forward_RS1_EXOUT [1:0] $end
$var wire 1 1" BUSYWAIT $end
$var wire 1 2" BUBBLE $end
$var wire 1 3" BRANCH_IDOUT $end
$var wire 32 4" BRANCH_DATA2 [31:0] $end
$var wire 32 5" BRANCH_DATA1 [31:0] $end
$var wire 1 6" BRANCH $end
$var wire 5 7" ALU_OPCODE_IDOUT [4:0] $end
$var wire 5 8" ALU_OPCODE [4:0] $end
$var wire 32 9" ALURESULT_MEMOUT [31:0] $end
$var wire 32 :" ALURESULT_EXOUT [31:0] $end
$var wire 32 ;" ALURESULT [31:0] $end
$scope module ALU $end
$var wire 64 <" mulhu_result [63:0] $end
$var wire 64 =" mulhsu_result [63:0] $end
$var wire 64 >" mulh_result [63:0] $end
$var wire 32 ?" data2 [31:0] $end
$var wire 32 @" data1 [31:0] $end
$var wire 32 A" MULH_result [31:0] $end
$var wire 32 B" MULHU_result [31:0] $end
$var wire 32 C" MULHSU_result [31:0] $end
$var wire 5 D" ALU_OPCODE [4:0] $end
$var reg 32 E" Output [31:0] $end
$upscope $end
$scope module BranchController1 $end
$var wire 32 F" ALUresult [31:0] $end
$var wire 3 G" func3 [2:0] $end
$var wire 32 H" data2 [31:0] $end
$var wire 32 I" data1 [31:0] $end
$var wire 1 h Jump $end
$var wire 1 3" Branch $end
$var reg 1 U PCAddressController $end
$var reg 32 J" TargetedAddress [31:0] $end
$upscope $end
$scope module Branch_Data1_MUX $end
$var wire 2 K" SELECT [1:0] $end
$var wire 32 L" INPUT_3 [31:0] $end
$var wire 32 M" INPUT_2 [31:0] $end
$var wire 32 N" INPUT_1 [31:0] $end
$var wire 32 O" INPUT_0 [31:0] $end
$var reg 32 P" OUTPUT [31:0] $end
$upscope $end
$scope module Branch_Data2_MUX $end
$var wire 2 Q" SELECT [1:0] $end
$var wire 32 R" INPUT_3 [31:0] $end
$var wire 32 S" INPUT_2 [31:0] $end
$var wire 32 T" INPUT_1 [31:0] $end
$var wire 32 U" INPUT_0 [31:0] $end
$var reg 32 V" OUTPUT [31:0] $end
$upscope $end
$scope module Data1_MUX $end
$var wire 2 W" SELECT [1:0] $end
$var wire 32 X" INPUT_3 [31:0] $end
$var wire 32 Y" INPUT_2 [31:0] $end
$var wire 32 Z" INPUT_1 [31:0] $end
$var wire 32 [" INPUT_0 [31:0] $end
$var reg 32 \" OUTPUT [31:0] $end
$upscope $end
$scope module Data2_MUX $end
$var wire 2 ]" SELECT [1:0] $end
$var wire 32 ^" INPUT_3 [31:0] $end
$var wire 32 _" INPUT_2 [31:0] $end
$var wire 32 `" INPUT_1 [31:0] $end
$var wire 32 a" INPUT_0 [31:0] $end
$var reg 32 b" OUTPUT [31:0] $end
$upscope $end
$scope module EX_MEM_pipeline1 $end
$var wire 1 ! CLK $end
$var wire 1 " RESET $end
$var wire 1 @ WRITE_ENABLE $end
$var wire 5 c" WRITE_ADDRESS [4:0] $end
$var wire 1 \ MEM_WRITE $end
$var wire 1 _ MEM_READ $end
$var wire 1 c MEM_ACCESS $end
$var wire 3 d" FUNCT3 [2:0] $end
$var wire 1 { FORWARD_MEMORY $end
$var wire 32 e" DATA2 [31:0] $end
$var wire 32 f" ALU_OUTPUT [31:0] $end
$var reg 32 g" ALU_OUTPUT_OUT [31:0] $end
$var reg 32 h" DATA2_OUT [31:0] $end
$var reg 3 i" FUNCT3_OUT [2:0] $end
$var reg 1 d MEM_ACCESS_OUT $end
$var reg 1 ` MEM_READ_OUT $end
$var reg 1 ] MEM_WRITE_OUT $end
$var reg 1 | OUT_FORWARD_MEMORY $end
$var reg 5 j" WRITE_ADDRESS_OUT [4:0] $end
$var reg 1 A WRITE_ENABLE_OUT $end
$upscope $end
$scope module ID_EXPipeline1 $end
$var wire 1 # BUBBLE $end
$var wire 1 ! CLK $end
$var wire 2 k" Load_Use_Hazard_RS1 [1:0] $end
$var wire 2 l" Load_Use_Hazard_RS2 [1:0] $end
$var wire 1 " Reset $end
$var wire 1 m" STALL $end
$var wire 32 n" instruction [31:0] $end
$var wire 1 B Write_Enable $end
$var wire 32 o" PC_next [31:0] $end
$var wire 32 p" PC [31:0] $end
$var wire 2 q" Offset_Generate [1:0] $end
$var wire 1 e Memory_Access $end
$var wire 1 ^ Mem_Write $end
$var wire 1 a Mem_Read $end
$var wire 1 g Load_New_Weight $end
$var wire 1 i Jump_and_Link $end
$var wire 1 j Jump $end
$var wire 32 r" Immediate_value [31:0] $end
$var wire 2 s" Immediate_Select [1:0] $end
$var wire 1 } FORWARD_MEMORY $end
$var wire 32 t" Data2 [31:0] $end
$var wire 32 u" Data1 [31:0] $end
$var wire 1 ," Custom_Enable $end
$var wire 2 v" Branch_Forward_RS2 [1:0] $end
$var wire 2 w" Branch_Forward_RS1 [1:0] $end
$var wire 1 6" Branch $end
$var wire 5 x" ALU_Opcode [4:0] $end
$var reg 1 { OUT_FORWARD_MEMORY $end
$var reg 5 y" Out_ALU_Opcode [4:0] $end
$var reg 1 3" Out_Branch $end
$var reg 2 z" Out_Branch_Forward_RS1 [1:0] $end
$var reg 2 {" Out_Branch_Forward_RS2 [1:0] $end
$var reg 1 +" Out_Custom_Enable $end
$var reg 32 |" Out_Data1 [31:0] $end
$var reg 32 }" Out_Data2 [31:0] $end
$var reg 2 ~" Out_Immediate_Select [1:0] $end
$var reg 32 !# Out_Immediate_value [31:0] $end
$var reg 1 h Out_Jump $end
$var reg 1 l Out_Jump_and_Link $end
$var reg 1 f Out_Load_New_Weight $end
$var reg 2 "# Out_Load_Use_Hazard_RS1 [1:0] $end
$var reg 2 ## Out_Load_Use_Hazard_RS2 [1:0] $end
$var reg 1 _ Out_Mem_Read $end
$var reg 1 \ Out_Mem_Write $end
$var reg 1 c Out_Memory_Access $end
$var reg 2 $# Out_Offset_Generate [1:0] $end
$var reg 32 %# Out_PC [31:0] $end
$var reg 32 &# Out_PC_next [31:0] $end
$var reg 5 '# Out_WriteAddress [4:0] $end
$var reg 1 @ Out_Write_Enable $end
$var reg 3 (# Out_func3 [2:0] $end
$upscope $end
$scope module ID_IF_register1 $end
$var wire 1 ! CLK $end
$var wire 32 )# INSTRUCTION [31:0] $end
$var wire 1 " RESET $end
$var wire 32 *# PC_PLUS_4 [31:0] $end
$var wire 32 +# PC [31:0] $end
$var wire 1 2" BUBBLE $end
$var reg 32 ,# INSTRUCTION_OUT [31:0] $end
$var reg 32 -# PC_OUT [31:0] $end
$var reg 32 .# PC_PLUS_4_OUT [31:0] $end
$upscope $end
$scope module JAL_MUX $end
$var wire 32 /# INPUT_0 [31:0] $end
$var wire 32 0# INPUT_1 [31:0] $end
$var wire 1 l SELECT $end
$var reg 32 1# OUTPUT [31:0] $end
$upscope $end
$scope module LIFO_Buffer_grad_value $end
$var wire 1 ! clk $end
$var wire 16 2# data_in [15:0] $end
$var wire 1 ( push $end
$var wire 1 " rst $end
$var wire 1 M pop_trigger $end
$var parameter 32 3# DATA_WIDTH $end
$var parameter 32 4# DEPTH $end
$var parameter 32 5# SERIALIZE_BITS $end
$var reg 6 6# bit_count [5:0] $end
$var reg 1 > busy $end
$var reg 16 7# data_out [15:0] $end
$var reg 1 : data_valid $end
$var reg 5 8# read_ptr [4:0] $end
$var reg 1 - serial_out $end
$var reg 16 9# shift_reg [15:0] $end
$var reg 5 :# stack_ptr [4:0] $end
$var reg 5 ;# stream_count [4:0] $end
$upscope $end
$scope module LIFO_Buffer_spike_status $end
$var wire 1 ! clk $end
$var wire 32 <# data_in [31:0] $end
$var wire 1 ) push $end
$var wire 1 " rst $end
$var wire 1 M pop_trigger $end
$var parameter 32 =# DATA_WIDTH $end
$var parameter 32 ># DEPTH $end
$var parameter 32 ?# SERIALIZE_BITS $end
$var reg 6 @# bit_count [5:0] $end
$var reg 1 = busy $end
$var reg 32 A# data_out [31:0] $end
$var reg 1 + data_valid $end
$var reg 5 B# read_ptr [4:0] $end
$var reg 1 , serial_out $end
$var reg 32 C# shift_reg [31:0] $end
$var reg 5 D# stack_ptr [4:0] $end
$var reg 5 E# stream_count [4:0] $end
$upscope $end
$scope module LoadUseComparator1 $end
$var wire 2 F# FORWARD_RS1 [1:0] $end
$var wire 2 G# FORWARD_RS2 [1:0] $end
$var wire 2 H# LOAD_USE_RS1 [1:0] $end
$var wire 2 I# LOAD_USE_RS2 [1:0] $end
$var reg 2 J# CORRECT_FORWARD_RS1 [1:0] $end
$var reg 2 K# CORRECT_FORWARD_RS2 [1:0] $end
$upscope $end
$scope module MEM_WBPipeline1 $end
$var wire 32 L# ALU_Output [31:0] $end
$var wire 1 ! CLK $end
$var wire 1 d Memory_access $end
$var wire 1 " Reset $end
$var wire 5 M# Write_Address [4:0] $end
$var wire 1 A Write_enable $end
$var wire 32 N# Memory_Data [31:0] $end
$var reg 32 O# ALU_Output_Out [31:0] $end
$var reg 32 P# Memory_Data_Out [31:0] $end
$var reg 1 b Memory_access_Out $end
$var reg 5 Q# Write_Address_out [4:0] $end
$var reg 1 ? Write_Enable_Out $end
$upscope $end
$scope module Memory_access_MUX $end
$var wire 32 R# INPUT_0 [31:0] $end
$var wire 32 S# INPUT_1 [31:0] $end
$var wire 1 b SELECT $end
$var reg 32 T# OUTPUT [31:0] $end
$upscope $end
$scope module PC_MUX $end
$var wire 32 U# INPUT_1 [31:0] $end
$var wire 1 U SELECT $end
$var wire 32 V# INPUT_0 [31:0] $end
$var reg 32 W# OUTPUT [31:0] $end
$upscope $end
$scope module controlunit1 $end
$var wire 32 X# INSTRUCTION [31:0] $end
$var wire 7 Y# OPCODE [6:0] $end
$var wire 7 Z# FUNCT7 [6:0] $end
$var wire 3 [# FUNCT3 [2:0] $end
$var reg 5 \# ALU_OPCODE [4:0] $end
$var reg 1 6" BRANCH $end
$var reg 1 ," CUSTOM_ENABLE $end
$var reg 2 ]# IMMEDIATE_SELECT [1:0] $end
$var reg 3 ^# IMMEDIATE_TYPE [2:0] $end
$var reg 1 j JUMP $end
$var reg 1 i JUMP_AND_LINK $end
$var reg 1 g LOAD_NEW_WEIGHT $end
$var reg 1 e MEMORY_ACCESS $end
$var reg 1 a MEM_READ $end
$var reg 1 [ MEM_TO_LIFO_START $end
$var reg 1 Z MEM_TO_LIFO_TARGET $end
$var reg 1 ^ MEM_WRITE $end
$var reg 2 _# OFFSET_GENARATOR [1:0] $end
$var reg 1 M POP $end
$var reg 1 L PUSH $end
$var reg 1 B WRITE_ENABLE $end
$upscope $end
$scope module custom_unit $end
$var wire 1 ! clk $end
$var wire 1 +" enable $end
$var wire 16 `# error_term_in [15:0] $end
$var wire 1 : grad_valid $end
$var wire 16 a# gradient_val [15:0] $end
$var wire 1 f load_new_weight $end
$var wire 1 b# rst_n $end
$var wire 1 , spike_status $end
$var wire 32 c# weight [31:0] $end
$var wire 64 d# lr_mul [63:0] $end
$var wire 32 e# lr_delta [31:0] $end
$var wire 32 f# delta_out [31:0] $end
$var parameter 16 g# LR $end
$var reg 32 h# Updated_weight [31:0] $end
$var reg 1 i# apply_update_d $end
$var reg 1 j# enable_latched $end
$var reg 16 k# error_term_latched [15:0] $end
$scope function sat16_to_32 $end
$var reg 64 l# value [63:0] $end
$upscope $end
$scope module backprop_unit $end
$var wire 1 ! clk $end
$var wire 1 j# enable $end
$var wire 16 m# error_term [15:0] $end
$var wire 1 : grad_valid $end
$var wire 16 n# gradient_val [15:0] $end
$var wire 1 b# rst_n $end
$var wire 1 , spike_status $end
$var wire 32 o# temporal_term [31:0] $end
$var wire 64 p# grad_mul [63:0] $end
$var wire 32 q# grad_fixed [31:0] $end
$var wire 32 r# error_fixed [31:0] $end
$var wire 32 s# effective_error [31:0] $end
$var wire 32 t# dm_next_calc [31:0] $end
$var wire 32 u# delta_spike_gated [31:0] $end
$var wire 32 v# delta_calc [31:0] $end
$var wire 64 w# beta_mul [63:0] $end
$var parameter 16 x# BETA $end
$var reg 32 y# delta_out [31:0] $end
$var reg 32 z# dm_prev [31:0] $end
$upscope $end
$upscope $end
$scope module datamemory1 $end
$var wire 32 {# ADDRESS [31:0] $end
$var wire 1 ! CLK $end
$var wire 3 |# FUNCT3 [2:0] $end
$var wire 1 / READ $end
$var wire 1 " RESET $end
$var wire 1 . WRITE $end
$var wire 32 }# WRITEDATA [31:0] $end
$var reg 1 1" BUSYWAIT $end
$var reg 32 ~# READDATA [31:0] $end
$var integer 32 !$ i [31:0] $end
$upscope $end
$scope module datamemory_MUX $end
$var wire 32 "$ INPUT_0 [31:0] $end
$var wire 32 #$ INPUT_1 [31:0] $end
$var wire 32 $$ INPUT_2 [31:0] $end
$var wire 32 %$ INPUT_3 [31:0] $end
$var wire 2 &$ SELECT [1:0] $end
$var reg 32 '$ OUTPUT [31:0] $end
$upscope $end
$scope module imidiateGenarator1 $end
$var wire 3 ($ IMMEDIATE_TYPE [2:0] $end
$var wire 32 )$ INSTRUCTION [31:0] $end
$var reg 32 *$ IMMEDIATE_VALUE [31:0] $end
$upscope $end
$scope module immForwarding $end
$var wire 2 +$ ControlUnit_IMMEDIATE_SELECT [1:0] $end
$var wire 2 ,$ ControlUnit_OFFSET_GENARATOR [1:0] $end
$var wire 32 -$ INSTRUCTION [31:0] $end
$var wire 5 .$ RD_imm_old [4:0] $end
$var wire 5 /$ RD_old_old [4:0] $end
$var wire 1 @ RegWrite_imm_old $end
$var wire 1 A RegWrite_old_old $end
$var wire 5 0$ SR2 [4:0] $end
$var wire 5 1$ SR1 [4:0] $end
$var wire 5 2$ RD [4:0] $end
$var wire 7 3$ OPCODE [6:0] $end
$var reg 2 4$ Branch_Forward_RS1 [1:0] $end
$var reg 2 5$ Branch_Forward_RS2 [1:0] $end
$var reg 2 6$ Data1_OffsetGenarator [1:0] $end
$var reg 2 7$ Data2_ImmediateSelect [1:0] $end
$var reg 2 8$ fwd1 [1:0] $end
$var reg 2 9$ fwd2 [1:0] $end
$upscope $end
$scope module instructionmem1 $end
$var wire 1 " RESET $end
$var wire 32 :$ PC [31:0] $end
$var reg 32 ;$ INSTRUCTION [31:0] $end
$upscope $end
$scope module load_use_hazard1 $end
$var wire 1 _ EX_MEMREAD $end
$var wire 1 ` MEMREAD_EXOUT $end
$var wire 1 ^ MEM_WRITE $end
$var wire 5 <$ RS1 [4:0] $end
$var wire 5 =$ RS2 [4:0] $end
$var wire 5 >$ WRITEADDRESS_EXOUT [4:0] $end
$var wire 5 ?$ WRITEADDRESS_IDOUT [4:0] $end
$var reg 1 2" BUBBLE $end
$var reg 1 } FORWARD_MEMORY $end
$var reg 2 @$ FRWD_RS1_WB [1:0] $end
$var reg 2 A$ FRWD_RS2_WB [1:0] $end
$upscope $end
$scope module mem_lifo_loader $end
$var wire 1 ! clk $end
$var wire 5 B$ count [4:0] $end
$var wire 32 C$ mem_data [31:0] $end
$var wire 1 ' mem_ready $end
$var wire 1 D$ rst_n $end
$var wire 1 [ start $end
$var wire 1 Z target_sel $end
$var wire 32 E$ base_addr [31:0] $end
$var parameter 3 F$ CAPTURE $end
$var parameter 3 G$ COMPLETE $end
$var parameter 3 H$ IDLE $end
$var parameter 3 I$ PUSH_DATA $end
$var parameter 3 J$ REQ_READ $end
$var reg 1 6 busy $end
$var reg 32 K$ captured_data [31:0] $end
$var reg 5 L$ counter [4:0] $end
$var reg 32 M$ current_addr [31:0] $end
$var reg 1 3 done $end
$var reg 16 N$ lifo_data_grad [15:0] $end
$var reg 32 O$ lifo_data_spike [31:0] $end
$var reg 1 2 lifo_push_grad $end
$var reg 1 1 lifo_push_spike $end
$var reg 32 P$ mem_addr [31:0] $end
$var reg 1 0 mem_read $end
$var reg 3 Q$ next_state [2:0] $end
$var reg 3 R$ state [2:0] $end
$var reg 1 S$ target_sel_latched $end
$upscope $end
$scope module pc1 $end
$var wire 1 2" BUBBLE $end
$var wire 1 ! CLK $end
$var wire 32 T$ PCIN [31:0] $end
$var wire 1 " RESET $end
$var reg 32 U$ PCOUT [31:0] $end
$upscope $end
$scope module pc_4_adder $end
$var wire 32 V$ PC [31:0] $end
$var wire 32 W$ PCPLUS4 [31:0] $end
$upscope $end
$scope module registerfile1 $end
$var wire 1 ! CLK $end
$var wire 1 " RESET $end
$var wire 5 X$ RS1 [4:0] $end
$var wire 5 Y$ RS2 [4:0] $end
$var wire 5 Z$ WRITEADDRESS [4:0] $end
$var wire 32 [$ WRITEDATA [31:0] $end
$var wire 1 ? WRITEENABLE $end
$var reg 32 \$ DATA1 [31:0] $end
$var reg 32 ]$ DATA2 [31:0] $end
$upscope $end
$upscope $end
$scope begin $ivl_for_loop0 $end
$var integer 32 ^$ j [31:0] $end
$upscope $end
$scope begin $ivl_for_loop1 $end
$var integer 32 _$ j [31:0] $end
$upscope $end
$scope begin $ivl_for_loop2 $end
$var integer 32 `$ j [31:0] $end
$upscope $end
$scope begin $ivl_for_loop3 $end
$var integer 32 a$ j [31:0] $end
$upscope $end
$scope begin $ivl_for_loop4 $end
$var integer 32 b$ j [31:0] $end
$upscope $end
$scope begin $ivl_for_loop5 $end
$var integer 32 c$ j [31:0] $end
$upscope $end
$scope begin $ivl_for_loop6 $end
$var integer 32 d$ j [31:0] $end
$upscope $end
$scope begin $ivl_for_loop7 $end
$var integer 32 e$ j [31:0] $end
$upscope $end
$upscope $end
$enddefinitions $end
$comment Show the parameter values. $end
$dumpall
b1 J$
b11 I$
b0 H$
b100 G$
b10 F$
b11110011 x#
b10010110 g#
b1 ?#
b10000 >#
b100000 =#
b0 5#
b10000 4#
b10000 3#
$end
#0
$dumpvars
bx e$
bx d$
bx c$
bx b$
bx a$
bx `$
b101000 _$
b110 ^$
bx ]$
bx \$
bx [$
bx Z$
bx Y$
bx X$
bx W$
bx V$
bx U$
bx T$
0S$
b0 R$
b0 Q$
b0 P$
b0 O$
b0 N$
b0 M$
b0 L$
b0 K$
bx E$
0D$
bx C$
bx B$
bx A$
bx @$
bx ?$
bx >$
bx =$
bx <$
bx ;$
bx :$
bx 9$
bx 8$
bx 7$
bx 6$
bx 5$
bx 4$
bx 3$
bx 2$
bx 1$
bx 0$
bx /$
bx .$
bx -$
bx ,$
bx +$
bx *$
bx )$
bx ($
b0 '$
bx &$
b0 %$
bx $$
b0 #$
bx "$
b10000000000 !$
bx ~#
b0 }#
bx |#
bx {#
b0 z#
b0 y#
b0 w#
bx v#
bx u#
bx t#
b0 s#
b0 r#
bx q#
bx p#
b0 o#
bx n#
b0 m#
bx l#
b0 k#
0j#
0i#
b0 h#
b0 f#
b0 e#
b0 d#
bx c#
0b#
bx a#
bx `#
bx _#
bx ^#
bx ]#
bx \#
bx [#
bx Z#
bx Y#
bx X#
bx W#
bx V#
bx U#
bx T#
bx S#
bx R#
bx Q#
bx P#
bx O#
bx N#
bx M#
bx L#
bx K#
bx J#
bx I#
bx H#
bx G#
bx F#
bx E#
bx D#
bx C#
bx B#
bx A#
bx @#
bx <#
bx ;#
bx :#
bx 9#
bx 8#
bx 7#
bx 6#
bx 2#
bx 1#
bx 0#
bx /#
bx .#
bx -#
bx ,#
bx +#
bx *#
bx )#
bx (#
bx '#
bx &#
bx %#
bx $#
bx ##
bx "#
bx !#
bx ~"
bx }"
bx |"
bx {"
bx z"
bx y"
bx x"
bx w"
bx v"
bx u"
bx t"
bx s"
bx r"
bx q"
bx p"
bx o"
bx n"
zm"
bz l"
bz k"
bx j"
bx i"
bx h"
bx g"
bx f"
bx e"
bx d"
bx c"
bx b"
bx a"
bx `"
bx _"
bx ^"
bx ]"
bx \"
bx ["
bx Z"
bx Y"
bx X"
bx W"
bx V"
bx U"
bx T"
bx S"
bx R"
bx Q"
bx P"
bx O"
bx N"
bx M"
bx L"
bx K"
bx J"
bx I"
bx H"
bx G"
bx F"
bx E"
bx D"
bx C"
bx B"
bx A"
bx @"
bx ?"
bx >"
bx ="
bx <"
bx ;"
bx :"
bx 9"
bx 8"
bx 7"
x6"
bx 5"
bx 4"
x3"
x2"
x1"
bx 0"
bx /"
bx ."
bx -"
x,"
x+"
bx *"
bx )"
bx ("
bx '"
bx &"
bx %"
b0 $"
bx #"
bx ""
bx !"
bx ~
x}
x|
x{
bx z
bx y
bx x
bx w
bx v
bx u
bx t
bx s
bx r
bx q
bx p
bx o
bx n
bx m
xl
bx k
xj
xi
xh
xg
xf
xe
xd
xc
xb
xa
x`
x_
x^
x]
x\
x[
xZ
bx Y
bx X
bx W
bx V
xU
bx T
bx S
bx R
bx Q
bx P
bx O
bx N
xM
xL
bx K
bx J
bx I
bx H
b0 G
bx F
bx E
bx D
bx C
xB
xA
x@
x?
x>
x=
bx <
bx ;
x:
bx 9
bx 8
b0 7
06
b0 5
b0 4
03
02
01
00
x/
x.
x-
x,
x+
bx *
x)
x(
x'
bz &
bz %
x$
x#
1"
0!
$end
#1000
b0 9$
b0 8$
b0 -"
b0 v"
b0 5$
b0 /"
b0 w"
b0 4$
b0 w
b0 A$
b0 x
b0 @$
02"
0}
b0 Y#
b0 [#
b0 Z#
b0 3$
b0 1$
b0 0$
b0 2$
b0 I
b0 =$
b0 Y$
b0 J
b0 <$
b0 X$
b0 m
b0 )#
b0 N
b0 o"
b0 .#
b0 Q
b0 p"
b0 -#
b0 n
b0 n"
b0 ,#
b0 X#
b0 )$
b0 -$
b0 o
b0 ;$
#2000
0(
0)
0#
0Z
0[
0g
0,"
0M
0L
0$
0U
#3000
b0 <
b0 2#
b0 B$
b0 ;
b0 <#
b0 &"
b0 t"
b0 ]$
b0 ("
b0 u"
b0 E$
b0 \$
#5000
b0 t#
b0 v#
b0 u#
b0 p#
0+
b0 *
b0 A#
0=
0,
b0 @#
b0 C#
b0 B#
b0 E#
b0 D#
0:
b0 q#
b0 9
b0 7#
b0 a#
b0 n#
0>
0-
b0 6#
b0 9#
b0 8#
b0 ;#
b0 :#
1!
#7000
b0 T
b0 +#
b0 :$
b0 U$
b0 V$
#8000
b100 R
b100 W#
b100 T$
b100 P
b100 *#
b100 V#
b100 W$
#10000
1D$
1b#
0!
0"
#11000
b1000001000000000001011 m
b1000001000000000001011 )#
b1000001000000000001011 o
b1000001000000000001011 ;$
#15000
1!
#17000
b0 `#
b0 4"
b0 H"
b0 V"
b0 5"
b0 I"
b0 P"
b0 k
b0 f"
b0 1#
b0 !"
b0 @"
b0 \"
b1011 Y#
b1011 3$
b1 1$
b10 0$
b10 I
b10 =$
b10 Y$
b1 J
b1 <$
b1 X$
0f
0+"
b0 ."
b0 Q"
b0 {"
b0 0"
b0 K"
b0 z"
bz V
bz ##
bz I#
bz W
bz "#
bz H#
0{
b0 u
b0 G"
b0 d"
b0 (#
b0 E
b0 c"
b0 '#
b0 .$
b0 ?$
b0 #"
b0 T"
b0 U"
b0 a"
b0 e"
b0 }"
b0 '"
b0 N"
b0 O"
b0 ["
b0 |"
b0 c#
b0 O
b0 &#
b0 0#
b0 S
b0 Z"
b0 %#
b100 T
b100 +#
b100 :$
b100 U$
b100 V$
b100 N
b100 o"
b100 .#
b1000001000000000001011 n
b1000001000000000001011 n"
b1000001000000000001011 ,#
b1000001000000000001011 X#
b1000001000000000001011 )$
b1000001000000000001011 -$
#18000
b10000011001000000001011 m
b10000011001000000001011 )#
b10000011001000000001011 o
b10000011001000000001011 ;$
1(
1)
b0 t
b0 s"
b0 7$
b0 Y
b0 q"
b0 6$
b1000 R
b1000 W#
b1000 T$
b0 ;"
b0 E"
b0 F"
b0 /#
1L
b0 8"
b0 x"
b0 \#
0j
06"
b0 )"
b0 _#
b0 ,$
b0 *"
b0 ]#
b0 +$
0i
0a
0^
0e
0B
b1000 P
b1000 *#
b1000 V#
b1000 W$
#19000
b11111111 <
b11111111 2#
b11111 B$
b1 ;
b1 <#
b0 H
b0 J"
b0 U#
b11111111 &"
b11111111 t"
b11111111 ]$
b1 ("
b1 u"
b1 E$
b1 \$
#20000
0!
#25000
b1 :#
b1 D#
1!
