rtl/neuron_integer/neuron_int_lif/accumulator/accumulator.vcd
$date
	Thu Apr 24 16:22:10 2025
$end
$version
	Icarus Verilog
$end
$timescale
	100ps
$end
$scope module Accumulator_tb $end
$var wire 32 ! accumulated_out [31:0] $end
$var reg 1 " clk $end
$var reg 1 # load $end
$var reg 1 $ mode $end
$var reg 1 % rst $end
$var reg 10 & src_addr [9:0] $end
$var reg 1 ' time_step $end
$var reg 32 ( weight_in [31:0] $end
$scope module uut $end
$var wire 1 " clk $end
$var wire 1 # load $end
$var wire 1 $ mode $end
$var wire 1 % rst $end
$var wire 10 ) src_addr [9:0] $end
$var wire 1 ' time_step $end
$var wire 32 * weight_in [31:0] $end
$var reg 32 + accumulated_out [31:0] $end
$var reg 32 , accumulated_reg [31:0] $end
$var reg 1 - prev_load $end
$var reg 1 . prev_time_step_val $end
$var reg 5 / write_ptr [4:0] $end
$var integer 32 0 i [31:0] $end
$upscope $end
$upscope $end
$enddefinitions $end
$comment Show the parameter values. $end
$dumpall
$end
#0
$dumpvars
bx 0
bx /
x.
x-
bx ,
bx +
b0 *
b0 )
b0 (
0'
b0 &
1%
0$
0#
0"
bx !
$end
#50
b0 ,
b0 !
b0 +
0.
b0 /
0-
b10000 0
1"
#100
0"
0%
#150
b10000 0
1"
#200
0"
1$
#250
1"
#300
0"
b1 (
b1 *
b1 &
b1 )
1#
#350
b1 /
1-
1"
#400
0"
0#
#450
0-
1"
#500
0"
b10 (
b10 *
b10 &
b10 )
1#
#550
b10 /
1-
1"
#600
0"
0#
#650
0-
1"
#700
0"
b11 (
b11 *
b11 &
b11 )
1#
#750
b11 /
1-
1"
#800
0"
0#
#850
0-
1"
#900
0"
b100 (
b100 *
b100 &
b100 )
1#
#950
b100 /
1-
1"
#1000
0"
b0 (
b0 *
b0 &
b0 )
0#
#1050
0-
1"
#1100
0"
#1150
b10000 0
1"
0$
#1200
0"
1'
#1250
1.
1-
b10000 0
1"
1#
#1300
0"
0'
#1350
0-
0.
b10000 0
1"
0#
b1 &
b1 )
#1400
0"
#1450
b1 ,
1-
b10000 0
1"
1#
#1500
0"
#1550
0-
b10000 0
1"
0#
b10 &
b10 )
#1600
0"
#1650
b11 ,
1-
b10000 0
1"
1#
#1700
0"
1'
#1750
0-
b11 !
b11 +
1.
b0 ,
b10000 0
1"
0#
b11 &
b11 )
#1800
0"
0'
#1850
b11 ,
0.
1-
b10000 0
1"
1#
#1900
0"
#1950
0-
b10000 0
1"
0#
b10 &
b10 )
#2000
0"
#2050
b101 ,
1-
b10000 0
1"
1#
#2100
0"
#2150
0-
b10000 0
1"
0#
b1 &
b1 )
#2200
0"
1'
#2250
b0 ,
b101 !
b101 +
1.
1-
b10000 0
1"
1#
#2300
0"
0'
#2350
0-
0.
b10000 0
1"
0#
b10 &
b10 )
#2400
0"
#2450
b10 ,
1-
b10000 0
1"
1#
#2500
0"
#2550
0-
b10000 0
1"
0#
b11 &
b11 )
#2600
0"
#2650
b10000 0
1"
#2700
0"
1'
#2750
b10 !
b10 +
1.
b0 ,
b10000 0
1"
#2800
0"
0'
#2850
0.
b10000 0
1"
#2900
0"
#2950
b10000 0
1"
#3000
0"
#3050
b10000 0
1"
#3100
0"
#3150
b10000 0
1"
#3200
0"
1'
#3250
b0 !
b0 +
1.
b10000 0
1"
#3300
0"
0'
#3350
0.
b10000 0
1"
#3400
0"
#3450
b10000 0
1"
#3500
0"
#3550
b10000 0
1"
#3600
0"
#3650
b10000 0
1"
