rtl/neuron_integer/neuron_int_lif/neuron/neuron_tb.vcd
$date
	Wed Jun 18 09:18:13 2025
$end

$version
	Synopsys VCS version W-2024.09-SP1_Full64
$end

$timescale
	100ps
$end

$comment Csum: 1 a82d04df3c64c106 $end


$scope module neuron_tb $end
$var reg 1 ! clk $end
$var reg 1 " rst $end
$var reg 1 # time_step $end
$var reg 1 $ load_data $end
$var reg 1 % chip_mode $end
$var reg 8 & data [7:0] $end
$var reg 32 ' weight_in [31:0] $end
$var wire 1 ( spike $end
$var wire 1 ) done $end

$scope module neuron $end
$var wire 1 * clk $end
$var wire 1 + rst $end
$var wire 1 , time_step $end
$var wire 1 - chip_mode $end
$var wire 8 . data [7:0] $end
$var wire 1 / load_data $end
$var wire 32 0 neuron_weight_in [31:0] $end
$var wire 1 1 rst_potential $end
$var wire 1 ( spike $end
$var wire 1 ) done $end
$var wire 1 2 load $end
$var wire 10 3 address [9:0] $end
$var wire 32 4 value [31:0] $end
$var wire 3 5 decay_mode [2:0] $end
$var wire 2 6 reset_mode [1:0] $end
$var wire 32 7 new_potential [31:0] $end
$var wire 32 8 final_potential [31:0] $end
$var wire 32 9 output_potential_decay [31:0] $end
$var wire 32 : accumulated_out [31:0] $end
$var wire 32 ; input_weight [31:0] $end
$var wire 32 < decayed_potential [31:0] $end
$var wire 1 = acc_load $end
$var wire 1 > adder_load $end
$var wire 1 ? adder_done $end
$var wire 1 @ decay_load $end
$var wire 1 A adder_load_en $end
$var wire 32 B weight_in [31:0] $end

$scope module controller $end
$var wire 1 / load_data $end
$var wire 8 . data [7:0] $end
$var wire 1 * clk $end
$var wire 1 + rst $end
$var reg 1 C load $end
$var reg 1 D adder_load $end
$var reg 32 E value [31:0] $end
$var reg 3 F decay_mode [2:0] $end
$var reg 2 G reset_mode [1:0] $end
$var reg 2 H controller_status [1:0] $end
$var reg 2 I buffer_status [1:0] $end
$var wire 2 J reset_mode_data [1:0] $end
$var wire 4 K work_mode_data [3:0] $end
$upscope $end


$scope module acc $end
$var wire 1 * clk $end
$var wire 1 + rst $end
$var wire 1 , time_step $end
$var wire 1 = load $end
$var wire 32 B weight_in [31:0] $end
$var reg 32 L accumulated_out [31:0] $end
$var reg 32 M accumulated_reg [31:0] $end
$var reg 1 N prev_time_step_val $end
$upscope $end


$scope module decay $end
$var wire 1 * clk $end
$var wire 1 + rst $end
$var wire 1 @ load $end
$var wire 1 , time_step $end
$var wire 1 1 rst_potential $end
$var wire 3 5 mode [2:0] $end
$var wire 32 7 new_potential [31:0] $end
$var reg 32 O output_potential_decay [31:0] $end
$var reg 32 P membrane_potential [31:0] $end
$var reg 1 Q prev_time_step $end
$upscope $end


$scope module adder $end
$var wire 1 * clk $end
$var wire 1 + rst $end
$var wire 1 , time_step $end
$var wire 32 ; input_weight [31:0] $end
$var wire 32 < decayed_potential [31:0] $end
$var wire 2 6 reset_mode [1:0] $end
$var wire 1 > load $end
$var reg 32 R final_potential [31:0] $end
$var reg 1 S done $end
$var reg 1 T spike $end
$var wire 32 U weight_added [31:0] $end
$var wire 32 V reset_value [31:0] $end
$var reg 32 W v_threshold [31:0] $end
$var reg 1 X adder_state $end
$var reg 1 Y prev_time_step $end
$upscope $end

$upscope $end

$upscope $end

$enddefinitions $end

#0
$dumpvars
0=
xS
xT
x?
0>
xA
xX
0%
0!
xD
xC
xQ
x@
x)
x2
0$
0-
0/
0+
0,
xY
xN
0"
z1
x(
0#
bxxxxxxxxxxxxxxxxxxxxxxxxxxxxxxxx L
bxxxxxxxxxxxxxxxxxxxxxxxxxxxxxxxx :
bxxxxxxxxxxxxxxxxxxxxxxxxxxxxxxxx M
bxxxxxxxxxxxxxxxxxxxxxxxxxxxxxxxx R
bzzzzzzzzzz 3
bxx I
bxxx F
bxx G
bxxxxxxxxxxxxxxxxxxxxxxxxxxxxxxxx E
bxx H
b00000000 &
bxxxxxxxxxxxxxxxxxxxxxxxxxxxxxxxx O
bxxx 5
bxxxxxxxxxxxxxxxxxxxxxxxxxxxxxxxx <
bxxxxxxxxxxxxxxxxxxxxxxxxxxxxxxxx 8
bxxxxxxxxxxxxxxxxxxxxxxxxxxxxxxxx ;
bxxxxxxxxxxxxxxxxxxxxxxxxxxxxxxxx P
b00000000 .
b00000000000000000000000000000000 B
b00000000000000000000000000000000 0
bxxxxxxxxxxxxxxxxxxxxxxxxxxxxxxxx 7
bxxxxxxxxxxxxxxxxxxxxxxxxxxxxxxxx 9
bxx 6
b00 J
bxxxxxxxxxxxxxxxxxxxxxxxxxxxxxxxx V
bxxxxxxxxxxxxxxxxxxxxxxxxxxxxxxxx W
bxxxxxxxxxxxxxxxxxxxxxxxxxxxxxxxx 4
bxxxxxxxxxxxxxxxxxxxxxxxxxxxxxxxx U
b00000000000000000000000000000000 '
b0000 K
0*
$end
#50
1!
1*
0Y
0S
0?
0)
0T
0(
0N
0Q
0C
02
0@
#100
1"
1+
0!
0*
#150
1!
1*
b00000000000000000000000000000000 W
b00000000000000000000000000000000 R
b00000000000000000000000000000000 8
0X
b00000000000000000000000000000000 M
b00000000000000000000000000000000 L
b00000000000000000000000000000000 :
b00000000000000000000000000000000 O
b00000000000000000000000000000000 9
b00000000000000000000000000000000 <
b00000000000000000000000000000000 P
b00000000000000000000000000000000 E
b00000000000000000000000000000000 4
b111 F
b111 5
b00 H
b01 G
b01 6
0D
0A
b00 I
b00000000000000000000000000000000 ;
b00000000000000000000000000000000 U
b00000000000000000000000000000000 7
b00000000000000000000000000000000 V
#200
0!
0*
#250
1!
1*
#300
0"
0+
1%
1-
0!
0*
#350
1!
1*
#400
b11111110 &
b11111110 .
b1110 K
b11 J
1$
1/
0!
0*
#450
1!
1*
b01 H
b000 F
b000 5
#500
b00000000 &
b00000000 .
b0000 K
b00 J
0!
0*
#550
1!
1*
b01 I
#600
0!
0*
#650
1!
1*
b10 I
#700
b00111111 &
b00111111 .
b1111 K
0!
0*
#750
1!
1*
b11 I
#800
b11111111 &
b11111111 .
b11 J
0!
0*
#850
1!
1*
b11111111001111110000000000000000 E
b11111111001111110000000000000000 4
b00 H
b00 I
b11111111001111110000000000000000 ;
b11111111001111110000000000000000 U
b11111111001111110000000000000000 7
b11111111001111110000000000000000 V
#900
0!
0*
#950
1!
1*
1C
12
1@
#1000
0$
0/
0!
0*
#1050
1!
1*
b11111111001111110000000000000000 P
0C
02
0@
#1100
b11111001 &
b11111001 .
b1001 K
1$
1/
0!
0*
#1150
1!
1*
b00000000000000000000000000000000 E
b00000000000000000000000000000000 4
b01 H
1D
1A
b111 F
b111 5
b00000000000000000000000000000000 ;
b00000000000000000000000000000000 U
b00000000000000000000000000000000 7
b00000000000000000000000000000000 V
#1200
b00000000 &
b00000000 .
b0000 K
b00 J
0!
0*
#1250
1!
1*
b01 I
#1300
0!
0*
#1350
1!
1*
b10 I
#1400
b00001000 &
b00001000 .
b1000 K
0!
0*
#1450
1!
1*
b11 I
#1500
b00000000 &
b00000000 .
b0000 K
0!
0*
#1550
1!
1*
b00000000000010000000000000000000 E
b00000000000010000000000000000000 4
b00 H
b00 I
b00000000000010000000000000000000 ;
b00000000000010000000000000000000 U
b00000000000000000000000000000000 V
#1600
b11111111 &
b11111111 .
b1111 K
b11 J
0!
0*
#1650
1!
1*
1C
12
1>
#1700
b11110111 &
b11110111 .
b0111 K
0!
0*
#1750
1!
1*
b00000000000010000000000000000000 W
0C
02
b00000000000000000000000000000000 E
b00000000000000000000000000000000 4
b10 H
0D
0A
b00000000000010000000000000000000 V
0>
b00000000000000000000000000000000 ;
b00000000000000000000000000000000 U
b00000000000000000000000000000000 V
#1800
b00000001 &
b00000001 .
b0001 K
b00 J
0!
0*
#1850
1!
1*
b001 F
b001 5
b00 G
b00 6
b00 H
#1900
0$
0/
0!
0*
#1950
1!
1*
#2000
0%
0-
0!
0*
#2050
1!
1*
#2100
0!
0*
#2150
1!
1*
#2200
0!
0*
#2250
1!
1*
#2300
0!
0*
#2350
1!
1*
#2400
0!
0*
#2450
1!
1*
#2500
0!
0*
#2550
1!
1*
#2600
0!
0*
#2650
1!
1*
#2700
0!
0*
#2750
1!
1*
#2800
0!
0*
#2850
1!
1*
#2900
0!
0*
#2950
1!
1*
#3000
b00000000000000000001000000000000 '
b00000000000000000001000000000000 0
b00000000000000000001000000000000 B
1$
1/
1=
0!
0*
#3050
1!
1*
b00000000000000000001000000000000 M
b01 H
#3100
0!
0*
#3150
1!
1*
b00000000000000000010000000000000 M
b01 I
#3200
b00000000000000000010000000000000 '
b00000000000000000010000000000000 0
b00000000000000000010000000000000 B
0!
0*
#3250
1!
1*
b00000000000000000100000000000000 M
b10 I
#3300
0$
0/
0=
0!
0*
#3350
1!
1*
#3400
0!
0*
#3450
1#
1,
1!
1*
1Y
1X
b00000000000000000000000000000000 M
1N
b00000000000000000100000000000000 L
b00000000000000000100000000000000 :
1Q
b11111111100111111000000000000000 O
b11111111100111111000000000000000 9
b11111111100111111000000000000000 <
b11111111100111111000000000000000 U
b00000000000000000100000000000000 ;
b11111111100111111100000000000000 U
b11111111100111111100000000000000 V
#3500
0!
0*
#3550
0#
0,
1!
1*
0Y
b11111111100111111100000000000000 R
b11111111100111111100000000000000 8
1S
1?
1)
0X
0N
0Q
b11111111100111111100000000000000 7
1@
#3600
0!
0*
#3650
1!
1*
0S
0?
0)
b11111111100111111100000000000000 P
0@
